1,1,0,1,1,3,0,0,0
2,2,0,2,2,8,0,0,0
3,3,0,3,3,11,0,0,0
4,4,0,4,4,15,0,0,0
5,5,0,5,5,18,0,0,0
6,6,0,6,6,22,0,0,0
7,7,0,7,7,25,0,0,0
8,8,0,8,8,28,0,0,0
9,9,0,9,9,33,0,0,0
10,10,0,10,10,36,0,0,0
11,11,0,11,11,39,0,0,0
12,12,0,12,12,42,0,0,0
13,13,0,13,13,44,0,0,0
14,14,0,14,14,47,0,0,0
15,15,0,15,15,51,0,0,0
16,16,0,16,16,54,0,0,0
17,17,0,17,17,56,0,0,0
18,18,0,18,18,58,0,0,0
19,19,0,19,19,60,0,0,0
20,20,0,20,20,62,0,0,0
21,21,1,21,21,64,0,0,0
22,22,0,22,22,68,0,0,0
23,23,0,23,23,70,0,0,0
24,24,0,24,24,75,0,0,0
25,25,0,25,25,79,0,0,0
26,26,0,26,26,82,0,0,0
27,27,1,27,27,84,0,0,0
28,28,0,28,28,87,0,0,0
29,29,0,29,29,90,0,0,0
30,30,0,30,30,92,0,0,0
31,31,0,31,31,97,0,0,0
32,32,0,32,32,100,0,0,0
33,33,0,33,33,104,0,0,0
34,34,1,34,34,107,0,0,0
35,35,0,35,35,111,0,0,0
36,36,0,36,36,114,0,0,0
37,37,0,37,37,117,0,0,0
38,38,0,38,38,120,0,0,0
39,39,0,39,39,123,0,0,0
40,40,0,40,40,128,0,0,0
41,41,0,41,41,132,0,0,0
42,42,0,42,42,135,0,0,0
43,43,1,43,43,140,0,0,0
44,44,0,44,44,142,0,0,0
45,45,0,45,45,145,0,0,0
46,46,0,46,46,148,0,0,0
47,47,0,47,47,152,0,0,0
48,48,0,48,48,154,0,0,0
49,49,0,49,49,157,0,0,0
50,50,1,50,50,162,0,0,0
51,51,0,51,51,166,0,0,0
52,52,0,52,52,170,0,0,0
53,53,0,53,53,175,0,0,0
54,54,0,54,54,177,0,0,0
55,55,0,55,55,182,0,0,0
56,56,1,56,56,184,0,0,0
57,57,0,57,57,189,0,0,0
58,58,0,58,58,193,0,0,0
59,59,0,59,59,196,0,0,0
60,60,0,60,60,199,0,0,0
61,61,0,61,61,201,0,0,0
62,62,1,62,62,206,0,0,0
63,63,0,63,63,211,0,0,0
64,64,0,64,64,216,0,0,0
65,65,0,65,65,218,0,0,0
66,66,1,66,66,220,0,0,0
67,67,0,67,67,222,0,0,0
68,68,1,68,68,225,0,0,0
69,69,0,69,69,229,0,0,0
70,70,0,70,70,234,0,0,0
71,71,0,71,71,237,0,0,0
72,72,0,72,72,239,0,0,0
73,73,1,73,73,243,0,0,0
74,74,0,74,74,247,0,0,0
75,75,0,75,75,252,0,0,0
76,76,0,76,76,254,0,0,0
77,77,1,77,77,256,0,0,0
78,78,0,78,78,261,0,0,0
79,79,0,79,79,266,0,0,0
80,80,0,80,80,270,0,0,0
81,81,1,81,81,275,0,0,0
82,82,0,82,82,277,0,0,0
83,83,0,83,83,282,0,0,0
84,84,0,84,84,286,0,0,0
85,85,0,85,85,289,0,0,0
86,86,0,86,86,291,0,0,0
87,87,0,87,87,296,0,0,0
88,88,0,88,88,301,0,0,0
89,89,1,89,89,304,0,0,0
90,90,0,90,90,308,0,0,0
91,91,0,91,91,312,0,0,0
92,92,0,92,92,316,0,0,0
93,93,1,93,93,318,0,0,0
94,94,0,94,94,319,0,0,0
95,95,0,95,95,321,0,0,0
96,96,1,96,96,322,0,0,0
97,97,1,97,97,325,0,0,0
98,98,0,98,98,329,0,0,0
99,99,0,99,99,334,0,0,0
100,100,1,100,100,338,0,0,0
101,101,0,101,101,343,0,0,0
102,102,0,102,102,346,0,0,0
103,103,0,103,103,350,0,0,0
104,104,1,104,104,355,0,0,0
105,105,0,105,105,357,0,0,0
106,106,0,106,106,362,0,0,0
107,107,1,107,107,365,0,0,0
108,108,0,108,108,370,0,0,0
109,109,0,109,109,372,0,0,0
110,110,1,110,110,376,0,0,0
111,111,0,111,111,379,0,0,0
112,112,0,112,112,383,0,0,0
113,113,1,113,113,388,0,0,0
114,114,0,114,114,390,0,0,0
115,115,0,115,115,395,0,0,0
116,116,1,116,116,397,0,0,0
117,117,0,117,117,401,0,0,0
118,118,0,118,118,403,0,0,0
119,119,1,119,119,405,0,0,0
120,120,1,120,120,409,0,0,0
121,121,0,121,121,414,0,0,0
122,122,1,122,122,417,0,0,0
123,123,0,123,123,419,0,0,0
124,124,0,124,124,422,0,0,0
125,125,1,125,125,427,0,0,0
126,126,0,126,126,431,0,0,0
127,127,1,127,127,436,0,0,0
128,128,0,128,128,438,0,0,0
129,129,0,129,129,442,0,0,0
130,130,1,130,130,447,0,0,0
131,131,0,131,131,450,0,0,0
132,132,1,132,132,454,0,0,0
133,133,0,133,133,456,0,0,0
134,134,0,134,134,460,0,0,0
135,135,1,135,135,462,0,0,0
136,136,0,136,136,464,0,0,0
137,137,1,137,137,466,0,0,0
138,138,0,138,138,468,0,0,0
139,139,0,139,139,470,0,0,0
140,140,1,140,140,473,0,0,0
141,141,1,141,141,477,0,0,0
142,142,0,142,142,482,0,0,0
143,143,1,143,143,484,0,0,0
144,144,0,144,144,487,0,0,0
145,145,1,145,145,492,0,0,0
146,146,0,146,146,494,0,0,0
147,147,1,147,147,498,0,0,0
148,148,0,148,148,501,0,0,0
149,149,0,149,149,505,0,0,0
150,150,1,150,150,509,0,0,0
151,151,0,151,151,513,0,0,0
152,152,1,152,152,516,0,0,0
153,153,0,153,153,520,0,0,0
154,154,1,154,154,523,0,0,0
155,155,0,155,155,526,0,0,0
156,156,1,156,156,528,0,0,0
157,157,0,157,157,533,0,0,0
158,158,1,158,158,536,0,0,0
159,159,0,159,159,541,0,0,0
160,160,0,160,160,546,0,0,0
161,161,2,161,161,549,0,0,0
162,162,0,162,162,553,0,0,0
163,163,1,163,163,557,0,0,0
164,164,0,164,164,560,0,0,0
165,165,1,165,165,562,0,0,0
166,166,0,166,166,567,0,0,0
167,167,1,167,167,570,0,0,0
168,168,0,168,168,572,0,0,0
169,169,1,169,169,576,0,0,0
170,170,0,170,170,581,0,0,0
171,171,1,171,171,584,0,0,0
172,172,1,172,172,588,0,0,0
173,173,0,173,173,591,0,0,0
174,174,1,174,174,594,0,0,0
175,175,0,175,175,599,0,0,0
176,176,1,176,176,604,0,0,0
177,177,0,177,177,606,0,0,0
178,178,2,178,178,609,0,0,0
179,179,0,179,179,614,0,0,0
180,180,1,180,180,617,0,0,0
181,181,0,181,181,622,0,0,0
182,182,1,182,182,627,0,0,0
183,183,0,183,183,632,0,0,0
184,184,1,184,184,636,0,0,0
185,185,0,185,185,641,0,0,0
186,186,1,186,186,645,0,0,0
187,187,1,187,187,650,0,0,0
188,188,0,188,188,652,0,0,0
189,189,1,189,189,655,0,0,0
190,190,0,190,190,657,0,0,0
191,191,1,191,191,662,0,0,0
192,192,0,192,192,666,0,0,0
193,193,1,193,193,670,0,0,0
194,194,1,194,194,672,0,0,0
195,195,1,195,195,674,0,0,0
196,196,1,196,196,678,0,0,0
197,197,0,197,197,683,0,0,0
198,198,1,198,198,685,0,0,0
199,199,1,199,199,688,0,0,0
200,200,0,200,200,691,0,0,0
201,201,1,201,201,695,0,0,0
202,202,0,202,202,697,0,0,0
203,203,1,203,203,699,0,0,0
204,204,1,204,204,701,0,0,0
205,205,0,205,205,703,0,0,0
206,206,1,206,206,705,0,0,0
207,207,0,207,207,707,0,0,0
208,208,1,208,208,711,0,0,0
209,209,1,209,209,714,0,0,0
210,210,0,210,210,716,0,0,0
211,211,2,211,211,719,0,0,0
212,212,1,212,212,723,0,0,0
213,213,0,213,213,728,0,0,0
214,214,1,214,214,730,0,0,0
215,215,1,215,215,732,0,0,0
216,216,0,216,216,736,0,0,0
217,217,1,217,217,739,0,0,0
218,218,1,218,218,743,0,0,0
219,219,0,219,219,748,0,0,0
220,220,1,220,220,753,0,0,0
221,221,1,221,221,755,0,0,0
222,222,0,222,222,759,0,0,0
223,223,1,223,223,762,0,0,0
224,224,1,224,224,764,0,0,0
225,225,0,225,225,769,0,0,0
226,226,3,226,226,774,0,0,0
227,227,1,227,227,777,0,0,0
228,228,1,228,228,781,0,0,0
229,229,0,229,229,784,0,0,0
230,230,1,230,230,787,0,0,0
231,231,1,231,231,790,0,0,0
232,232,1,232,232,794,0,0,0
233,233,0,233,233,799,0,0,0
234,234,1,234,234,802,0,0,0
235,235,1,235,235,807,0,0,0
236,236,1,236,236,810,0,0,0
237,237,1,237,237,812,0,0,0
238,238,0,238,238,816,0,0,0
239,239,0,239,239,821,0,0,0
240,240,1,240,240,824,0,0,0
241,241,1,241,241,827,0,0,0
242,242,1,242,242,832,0,0,0
243,243,1,243,243,836,0,0,0
244,244,0,244,244,840,0,0,0
245,245,1,245,245,843,0,0,0
246,246,1,246,246,848,0,0,0
247,247,1,247,247,852,0,0,0
248,248,1,248,248,856,0,0,0
249,249,1,249,249,859,0,0,0
250,250,0,250,250,863,0,0,0
251,251,0,251,251,867,0,0,0
252,252,1,252,252,871,0,0,0
253,253,1,253,253,875,0,0,0
254,254,1,254,254,877,0,0,0
255,255,1,255,255,879,0,0,0
256,256,1,256,256,883,0,0,0
257,257,0,257,257,888,0,0,0
258,258,1,258,258,892,0,0,0
259,259,1,259,259,897,0,0,0
260,260,1,260,260,898,0,0,0
261,261,1,261,261,900,0,0,0
262,262,1,262,262,905,0,0,0
263,263,1,263,263,908,0,0,0
264,264,1,264,264,911,0,0,0
265,265,1,265,265,914,0,0,0
266,266,0,266,266,917,0,0,0
267,267,1,267,267,920,0,0,0
268,268,1,268,268,923,0,0,0
269,269,1,269,269,925,0,0,0
270,270,1,270,270,930,0,0,0
271,271,1,271,271,932,0,0,0
272,272,1,272,272,937,0,0,0
273,273,1,273,273,939,0,0,0
274,274,1,274,274,943,0,0,0
275,275,1,275,275,944,0,0,0
276,276,1,276,276,946,0,0,0
277,277,1,277,277,950,0,0,0
278,278,1,278,278,953,0,0,0
279,279,0,279,279,957,0,0,0
280,280,0,280,280,959,0,0,0
281,281,1,281,281,964,0,0,0
282,282,1,282,282,967,0,0,0
283,283,1,283,283,971,0,0,0
284,284,1,284,284,973,0,0,0
285,285,1,285,285,977,0,0,0
286,286,1,286,286,982,0,0,0
287,287,1,287,287,987,0,0,0
288,288,0,288,288,989,0,0,0
289,289,0,289,289,991,0,0,0
290,290,1,290,290,995,0,0,0
291,291,1,291,291,999,0,0,0
292,292,2,292,292,1001,0,0,0
293,293,1,293,293,1004,0,0,0
294,294,1,294,294,1008,0,0,0
295,295,1,295,295,1011,0,0,0
296,296,1,296,296,1013,0,0,0
297,297,1,297,297,1017,0,0,0
298,298,1,298,298,1022,0,0,0
299,299,1,299,299,1026,0,0,0
300,300,1,300,300,1029,0,0,0
301,301,1,301,301,1032,0,0,0
302,302,1,302,302,1037,0,0,0
303,303,1,303,303,1042,0,0,0
304,304,1,304,304,1046,0,0,0
305,305,1,305,305,1050,0,0,0
306,306,1,306,306,1051,0,0,0
307,307,1,307,307,1053,0,0,0
308,308,1,308,308,1056,0,0,0
309,309,1,309,309,1058,0,0,0
310,310,1,310,310,1063,0,0,0
311,311,2,311,311,1068,0,0,0
312,312,1,312,312,1070,0,0,0
313,313,1,313,313,1073,0,0,0
314,314,1,314,314,1075,0,0,0
315,315,1,315,315,1080,0,0,0
316,316,1,316,316,1083,0,0,0
317,317,1,317,317,1087,0,0,0
318,318,1,318,318,1092,0,0,0
319,319,1,319,319,1095,0,0,0
320,320,2,320,320,1099,0,0,0
321,321,1,321,321,1102,0,0,0
322,322,1,322,322,1105,0,0,0
323,323,1,323,323,1107,0,0,0
324,324,1,324,324,1109,0,0,0
325,325,1,325,325,1111,0,0,0
326,326,1,326,326,1113,0,0,0
327,327,1,327,327,1116,0,0,0
328,328,2,328,328,1120,0,0,0
329,329,1,329,329,1123,0,0,0
330,330,1,330,330,1126,0,0,0
331,331,1,331,331,1130,0,0,0
332,332,1,332,332,1133,0,0,0
333,333,1,333,333,1138,0,0,0
334,334,1,334,334,1142,0,0,0
335,335,1,335,335,1146,0,0,0
336,336,1,336,336,1151,0,0,0
337,337,1,337,337,1153,0,0,0
338,338,1,338,338,1158,0,0,0
339,339,2,339,339,1161,0,0,0
340,340,1,340,340,1166,0,0,0
341,341,1,341,341,1170,0,0,0
342,342,1,342,342,1173,0,0,0
343,343,2,343,343,1178,0,0,0
344,344,1,344,344,1181,0,0,0
345,345,1,345,345,1185,0,0,0
346,346,1,346,346,1188,0,0,0
347,347,2,347,347,1190,0,0,0
348,348,1,348,348,1193,0,0,0
349,349,1,349,349,1195,0,0,0
350,350,1,350,350,1197,0,0,0
351,351,2,351,351,1202,0,0,0
352,352,1,352,352,1207,0,0,0
353,353,1,353,353,1208,0,0,0
354,354,1,354,354,1211,0,0,0
355,355,2,355,355,1216,0,0,0
356,356,1,356,356,1219,0,0,0
357,357,1,357,357,1223,0,0,0
358,358,2,358,358,1227,0,0,0
359,359,1,359,359,1230,0,0,0
360,360,1,360,360,1234,0,0,0
361,361,1,361,361,1238,0,0,0
362,362,1,362,362,1242,0,0,0
363,363,1,363,363,1247,0,0,0
364,364,1,364,364,1250,0,0,0
365,365,2,365,365,1253,0,0,0
366,366,1,366,366,1255,0,0,0
367,367,1,367,367,1257,0,0,0
368,368,2,368,368,1262,0,0,0
369,369,1,369,369,1264,0,0,0
370,370,1,370,370,1268,0,0,0
371,371,1,371,371,1270,0,0,0
372,372,1,372,372,1272,0,0,0
373,373,1,373,373,1275,0,0,0
374,374,2,374,374,1279,0,0,0
375,375,1,375,375,1283,0,0,0
376,376,1,376,376,1288,0,0,0
377,377,2,377,377,1290,0,0,0
378,378,1,378,378,1294,0,0,0
379,379,1,379,379,1296,0,0,0
380,380,1,380,380,1300,0,0,0
381,381,1,381,381,1303,0,0,0
382,382,2,382,382,1305,0,0,0
383,383,1,383,383,1307,0,0,0
384,384,2,384,384,1309,0,0,0
385,385,1,385,385,1313,0,0,0
386,386,1,386,386,1316,0,0,0
387,387,2,387,387,1319,0,0,0
388,388,1,388,388,1321,0,0,0
389,389,1,389,389,1326,0,0,0
390,390,1,390,390,1328,0,0,0
391,391,1,391,391,1332,0,0,0
392,392,2,392,392,1335,0,0,0
393,393,1,393,393,1340,0,0,0
394,394,2,394,394,1342,0,0,0
395,395,1,395,395,1345,0,0,0
396,396,2,396,396,1348,0,0,0
397,397,1,397,397,1351,0,0,0
398,398,1,398,398,1355,0,0,0
399,399,2,399,399,1360,0,0,0
400,400,1,400,400,1363,0,0,0
401,401,2,401,401,1366,0,0,0
402,402,1,402,402,1371,0,0,0
403,403,2,403,403,1375,0,0,0
404,404,1,404,404,1377,0,0,0
405,405,2,405,405,1381,0,0,0
406,406,1,406,406,1384,0,0,0
407,407,2,407,407,1389,0,0,0
408,408,1,408,408,1391,0,0,0
409,409,2,409,409,1394,0,0,0
410,410,1,410,410,1397,0,0,0
411,411,2,411,411,1399,0,0,0
412,412,1,412,412,1402,0,0,0
413,413,2,413,413,1403,0,0,0
414,414,1,414,414,1405,0,0,0
415,415,2,415,415,1406,0,0,0
416,416,1,416,416,1408,0,0,0
417,417,2,417,417,1412,0,0,0
418,418,1,418,418,1415,0,0,0
419,419,2,419,419,1417,0,0,0
420,420,1,420,420,1422,0,0,0
421,421,2,421,421,1424,0,0,0
422,422,3,422,422,1426,0,0,0
423,423,1,423,423,1428,0,0,0
424,424,1,424,424,1430,0,0,0
425,425,2,425,425,1433,0,0,0
426,426,1,426,426,1436,0,0,0
427,427,1,427,427,1440,0,0,0
428,428,2,428,428,1444,0,0,0
429,429,2,429,429,1446,0,0,0
430,430,1,430,430,1449,0,0,0
431,431,2,431,431,1452,0,0,0
432,432,1,432,432,1455,0,0,0
433,433,1,433,433,1458,0,0,0
434,434,2,434,434,1461,0,0,0
435,435,1,435,435,1464,0,0,0
436,436,2,436,436,1467,0,0,0
437,437,1,437,437,1470,0,0,0
438,438,2,438,438,1474,0,0,0
439,439,1,439,439,1479,0,0,0
440,440,2,440,440,1481,0,0,0
441,441,1,441,441,1484,0,0,0
442,442,2,442,442,1487,0,0,0
443,443,1,443,443,1490,0,0,0
444,444,2,444,444,1492,0,0,0
445,445,1,445,445,1495,0,0,0
446,446,2,446,446,1498,0,0,0
447,447,1,447,447,1500,0,0,0
448,448,1,448,448,1504,0,0,0
449,449,1,449,449,1509,0,0,0
450,450,3,450,450,1511,0,0,0
451,451,1,451,451,1515,0,0,0
452,452,1,452,452,1518,0,0,0
453,453,2,453,453,1523,0,0,0
454,454,1,454,454,1526,0,0,0
455,455,2,455,455,1528,0,0,0
456,456,1,456,456,1532,0,0,0
457,457,2,457,457,1536,0,0,0
458,458,1,458,458,1539,0,0,0
459,459,2,459,459,1542,0,0,0
460,460,1,460,460,1546,0,0,0
461,461,1,461,461,1550,0,0,0
462,462,2,462,462,1555,0,0,0
463,463,1,463,463,1558,0,0,0
464,464,2,464,464,1562,0,0,0
465,465,1,465,465,1566,0,0,0
466,466,2,466,466,1569,0,0,0
467,467,2,467,467,1574,0,0,0
468,468,1,468,468,1577,0,0,0
469,469,2,469,469,1579,0,0,0
470,470,2,470,470,1582,0,0,0
471,471,1,471,471,1585,0,0,0
472,472,2,472,472,1588,0,0,0
473,473,2,473,473,1590,0,0,0
474,474,1,474,474,1594,0,0,0
475,475,2,475,475,1597,0,0,0
476,476,2,476,476,1600,0,0,0
477,477,1,477,477,1602,0,0,0
478,478,2,478,478,1607,0,0,0
479,479,2,479,479,1609,0,0,0
480,480,1,480,480,1613,0,0,0
481,481,2,481,481,1616,0,0,0
482,482,2,482,482,1620,0,0,0
483,483,1,483,483,1623,0,0,0
484,484,2,484,484,1625,0,0,0
485,485,2,485,485,1627,0,0,0
486,486,2,486,486,1629,0,0,0
487,487,1,487,487,1633,0,0,0
488,488,2,488,488,1636,0,0,0
489,489,2,489,489,1639,0,0,0
490,490,2,490,490,1643,0,0,0
491,491,1,491,491,1647,0,0,0
492,492,2,492,492,1650,0,0,0
493,493,2,493,493,1653,0,0,0
494,494,2,494,494,1656,0,0,0
495,495,1,495,495,1658,0,0,0
496,496,2,496,496,1663,0,0,0
497,497,2,497,497,1665,0,0,0
498,498,2,498,498,1667,0,0,0
499,499,1,499,499,1671,0,0,0
500,500,2,500,500,1675,0,0,0
501,501,2,501,501,1677,0,0,0
502,502,2,502,502,1680,0,0,0
503,503,1,503,503,1684,0,0,0
504,504,2,504,504,1687,0,0,0
505,505,2,505,505,1689,0,0,0
506,506,2,506,506,1693,0,0,0
507,507,2,507,507,1697,0,0,0
508,508,1,508,508,1699,0,0,0
509,509,2,509,509,1701,0,0,0
510,510,2,510,510,1706,0,0,0
511,511,2,511,511,1711,0,0,0
512,512,1,512,512,1713,0,0,0
513,513,2,513,513,1715,0,0,0
514,514,2,514,514,1719,0,0,0
515,515,2,515,515,1724,0,0,0
516,516,2,516,516,1728,0,0,0
517,517,1,517,517,1732,0,0,0
518,518,2,518,518,1734,0,0,0
519,519,2,519,519,1737,0,0,0
520,520,2,520,520,1739,0,0,0
521,521,2,521,521,1743,0,0,0
522,522,2,522,522,1748,0,0,0
523,523,1,523,523,1752,0,0,0
524,524,2,524,524,1757,0,0,0
525,525,2,525,525,1760,0,0,0
526,526,2,526,526,1762,0,0,0
527,527,2,527,527,1765,0,0,0
528,528,2,528,528,1770,0,0,0
529,529,2,529,529,1774,0,0,0
530,530,1,530,530,1778,0,0,0
531,531,2,531,531,1781,0,0,0
532,532,2,532,532,1783,0,0,0
533,533,2,533,533,1788,0,0,0
534,534,2,534,534,1790,0,0,0
535,535,2,535,535,1795,0,0,0
536,536,2,536,536,1797,0,0,0
537,537,2,537,537,1802,0,0,0
538,538,2,538,538,1805,0,0,0
539,539,2,539,539,1807,0,0,0
540,540,2,540,540,1812,0,0,0
541,541,2,541,541,1816,0,0,0
542,542,2,542,542,1818,0,0,0
543,543,1,543,543,1822,0,0,0
544,544,1,544,544,1827,0,0,0
545,545,2,545,545,1829,0,0,0
546,546,2,546,546,1833,0,0,0
547,547,2,547,547,1838,0,0,0
548,548,2,548,548,1840,0,0,0
549,549,2,549,549,1842,0,0,0
550,550,2,550,550,1846,0,0,0
551,551,2,551,551,1850,0,0,0
552,552,2,552,552,1854,0,0,0
553,553,2,553,553,1858,0,0,0
554,554,2,554,554,1860,0,0,0
555,555,2,555,555,1863,0,0,0
556,556,2,556,556,1867,0,0,0
557,557,2,557,557,1871,0,0,0
558,558,2,558,558,1873,0,0,0
559,559,2,559,559,1878,0,0,0
560,560,2,560,560,1883,0,0,0
561,561,2,561,561,1886,0,0,0
562,562,3,562,562,1889,0,0,0
563,563,2,563,563,1892,0,0,0
564,564,2,564,564,1895,0,0,0
565,565,2,565,565,1899,0,0,0
566,566,2,566,566,1902,0,0,0
567,567,2,567,567,1904,0,0,0
568,568,3,568,568,1906,0,0,0
569,569,3,569,569,1909,0,0,0
570,570,2,570,570,1913,0,0,0
571,571,2,571,571,1915,0,0,0
572,572,2,572,572,1918,0,0,0
573,573,2,573,573,1923,0,0,0
574,574,2,574,574,1928,0,0,0
575,575,2,575,575,1932,0,0,0
576,576,3,576,576,1934,0,0,0
577,577,2,577,577,1936,0,0,0
578,578,2,578,578,1940,0,0,0
579,579,2,579,579,1945,0,0,0
580,580,2,580,580,1949,0,0,0
581,581,2,581,581,1953,0,0,0
582,582,2,582,582,1955,0,0,0
583,583,2,583,583,1958,0,0,0
584,584,2,584,584,1962,0,0,0
585,585,3,585,585,1965,0,0,0
586,586,2,586,586,1968,0,0,0
587,587,2,587,587,1973,0,0,0
588,588,2,588,588,1978,0,0,0
589,589,2,589,589,1982,0,0,0
590,590,2,590,590,1984,0,0,0
591,591,2,591,591,1989,0,0,0
592,592,3,592,592,1993,0,0,0
593,593,2,593,593,1994,0,0,0
594,594,2,594,594,1997,0,0,0
595,595,2,595,595,2001,0,0,0
596,596,2,596,596,2006,0,0,0
597,597,2,597,597,2008,0,0,0
598,598,3,598,598,2012,0,0,0
599,599,2,599,599,2014,0,0,0
600,600,2,600,600,2018,0,0,0
601,601,2,601,601,2019,0,0,0
602,602,2,602,602,2022,0,0,0
603,603,3,603,603,2026,0,0,0
604,604,2,604,604,2028,0,0,0
605,605,2,605,605,2033,0,0,0
606,606,2,606,606,2038,0,0,0
607,607,3,607,607,2042,0,0,0
608,608,2,608,608,2047,0,0,0
609,609,2,609,609,2050,0,0,0
610,610,3,610,610,2054,0,0,0
611,611,2,611,611,2056,0,0,0
612,612,2,612,612,2061,0,0,0
613,613,3,613,613,2066,0,0,0
614,614,2,614,614,2068,0,0,0
615,615,2,615,615,2073,0,0,0
616,616,2,616,616,2078,0,0,0
617,617,2,617,617,2081,0,0,0
618,618,2,618,618,2086,0,0,0
619,619,2,619,619,2090,0,0,0
620,620,3,620,620,2094,0,0,0
621,621,2,621,621,2098,0,0,0
622,622,2,622,622,2100,0,0,0
623,623,2,623,623,2103,0,0,0
624,624,3,624,624,2105,0,0,0
625,625,2,625,625,2109,0,0,0
626,626,2,626,626,2112,0,0,0
627,627,3,627,627,2117,0,0,0
628,628,2,628,628,2121,0,0,0
629,629,2,629,629,2122,0,0,0
630,630,3,630,630,2124,0,0,0
631,631,2,631,631,2126,0,0,0
632,632,3,632,632,2129,0,0,0
633,633,2,633,633,2134,0,0,0
634,634,2,634,634,2138,0,0,0
635,635,3,635,635,2141,0,0,0
636,636,2,636,636,2144,0,0,0
637,637,3,637,637,2149,0,0,0
638,638,2,638,638,2151,0,0,0
639,639,2,639,639,2155,0,0,0
640,640,3,640,640,2159,0,0,0
641,641,2,641,641,2163,0,0,0
642,642,3,642,642,2167,0,0,0
643,643,2,643,643,2170,0,0,0
644,644,3,644,644,2174,0,0,0
645,645,2,645,645,2177,0,0,0
646,646,2,646,646,2179,0,0,0
647,647,3,647,647,2183,0,0,0
648,648,2,648,648,2188,0,0,0
649,649,3,649,649,2191,0,0,0
650,650,2,650,650,2194,0,0,0
651,651,3,651,651,2196,0,0,0
652,652,2,652,652,2198,0,0,0
653,653,3,653,653,2203,0,0,0
654,654,2,654,654,2205,0,0,0
655,655,3,655,655,2207,0,0,0
656,656,2,656,656,2209,0,0,0
657,657,3,657,657,2214,0,0,0
658,658,2,658,658,2217,0,0,0
659,659,3,659,659,2220,0,0,0
660,660,2,660,660,2222,0,0,0
661,661,3,661,661,2226,0,0,0
662,662,2,662,662,2229,0,0,0
663,663,3,663,663,2233,0,0,0
664,664,2,664,664,2236,0,0,0
665,665,3,665,665,2241,0,0,0
666,666,2,666,666,2244,0,0,0
667,667,3,667,667,2248,0,0,0
668,667,2,668,667,2248,0,0,0
669,668,3,669,668,2252,0,0,0
670,669,3,670,669,2255,0,0,0
671,669,2,671,669,2255,0,0,0
672,670,3,672,670,2259,0,0,0
673,671,2,673,671,2260,0,0,0
674,672,3,674,672,2263,0,0,0
675,673,2,675,673,2265,0,0,0
676,674,3,676,674,2270,0,0,0
677,675,3,677,675,2273,0,0,0
678,676,2,678,676,2277,0,0,0
679,677,3,679,677,2280,0,0,0
680,678,3,680,678,2285,0,0,0
681,679,2,681,679,2288,0,0,0
682,680,3,682,680,2292,0,0,0
683,681,3,683,681,2294,0,0,0
684,682,3,684,682,2296,0,0,0
685,683,2,685,683,2299,0,0,0
686,684,3,686,684,2302,0,0,0
687,685,3,687,685,2307,0,0,0
688,686,2,688,686,2312,0,0,0
689,687,3,689,687,2316,0,0,0
690,688,3,690,688,2318,0,0,0
691,689,3,691,689,2321,0,0,0
692,690,2,692,690,2325,0,0,0
693,691,5,693,691,2329,0,0,0
694,692,2,694,692,2334,0,0,0
695,693,3,695,693,2338,0,0,0
696,694,3,696,694,2343,0,0,0
697,695,2,697,695,2346,0,0,0
698,696,3,698,696,2348,0,0,0
699,697,3,699,697,2352,0,0,0
700,698,2,700,698,2357,0,0,0
701,699,3,701,699,2362,0,0,0
702,700,3,702,700,2366,0,0,0
703,701,3,703,701,2368,0,0,0
704,702,2,704,702,2371,0,0,0
705,703,3,705,703,2373,0,0,0
706,704,3,706,704,2377,0,0,0
707,705,3,707,705,2380,0,0,0
708,706,2,708,706,2385,0,0,0
709,707,3,709,707,2389,0,0,0
710,708,3,710,708,2392,0,0,0
711,709,2,711,709,2395,0,0,0
712,710,3,712,710,2399,0,0,0
713,710,3,713,710,2399,0,0,0
714,711,3,714,711,2402,0,0,0
715,712,2,715,712,2403,0,0,0
716,713,3,716,713,2406,0,0,0
717,714,3,717,714,2410,0,0,0
718,715,3,718,715,2412,0,0,0
719,716,3,719,716,2416,0,0,0
720,717,2,720,717,2418,0,0,0
721,717,3,721,717,2418,0,0,0
722,718,3,722,718,2419,0,0,0
723,719,3,723,719,2421,0,0,0
724,720,3,724,720,2425,0,0,0
725,722,3,725,722,2431,0,0,0
726,723,2,726,723,2434,0,0,0
727,723,3,727,723,2434,0,0,0
728,724,3,728,724,2436,0,0,0
729,725,3,729,725,2438,0,0,0
730,726,3,730,726,2443,0,0,0
731,727,3,731,727,2446,0,0,0
732,728,3,732,728,2451,0,0,0
733,729,2,733,729,2454,0,0,0
734,730,3,734,730,2457,0,0,0
735,731,3,735,731,2459,0,0,0
736,732,3,736,732,2463,0,0,0
737,732,3,737,732,2463,0,0,0
738,733,3,738,733,2466,0,0,0
739,734,3,739,734,2470,0,0,0
740,735,2,740,735,2473,0,0,0
741,736,3,741,736,2476,0,0,0
742,737,3,742,737,2479,0,0,0
743,738,2,743,738,2481,0,0,0
744,739,3,744,739,2483,0,0,0
745,740,3,745,740,2487,0,0,0
746,741,3,746,741,2492,0,0,0
747,742,3,747,742,2496,0,0,0
748,743,3,748,743,2500,0,0,0
749,744,3,749,744,2504,0,0,0
750,745,3,750,745,2509,0,0,0
751,746,3,751,746,2511,0,0,0
752,747,3,752,747,2516,0,0,0
753,748,3,753,748,2518,0,0,0
754,749,3,754,749,2521,0,0,0
755,750,3,755,750,2525,0,0,0
756,751,3,756,751,2530,0,0,0
757,752,3,757,752,2532,0,0,0
758,752,2,758,752,2532,0,0,0
759,753,3,759,753,2534,0,0,0
760,754,3,760,754,2536,0,0,0
761,755,3,761,755,2541,0,0,0
762,756,3,762,756,2545,0,0,0
763,757,2,763,757,2549,0,0,0
764,758,3,764,758,2552,0,0,0
765,759,3,765,759,2555,0,0,0
766,760,3,766,760,2558,0,0,0
767,761,3,767,761,2561,0,0,0
768,762,2,768,762,2565,0,0,0
769,763,3,769,763,2568,0,0,0
770,764,4,770,764,2572,0,0,0
771,765,3,771,765,2575,0,0,0
772,766,3,772,766,2579,0,0,0
773,767,3,773,767,2583,0,0,0
774,767,3,774,767,2583,0,0,0
775,768,3,775,768,2587,0,0,0
776,769,3,776,769,2590,0,0,0
777,769,3,777,769,2590,0,0,0
778,770,3,778,770,2595,0,0,0
779,771,3,779,771,2599,0,0,0
780,772,3,780,772,2604,0,0,0
781,773,3,781,773,2609,0,0,0
782,774,3,782,774,2612,0,0,0
783,775,3,783,775,2614,0,0,0
784,776,4,784,776,2618,0,0,0
785,777,3,785,777,2621,0,0,0
786,778,3,786,778,2624,0,0,0
787,779,3,787,779,2629,0,0,0
788,780,3,788,780,2633,0,0,0
789,781,3,789,781,2637,0,0,0
790,782,3,790,782,2642,0,0,0
791,783,3,791,783,2646,0,0,0
792,784,3,792,784,2648,0,0,0
793,785,3,793,785,2653,0,0,0
794,786,3,794,786,2657,0,0,0
795,787,3,795,787,2661,0,0,0
796,788,3,796,788,2664,0,0,0
797,789,3,797,789,2667,0,0,0
798,790,4,798,790,2671,0,0,0
799,791,3,799,791,2676,0,0,0
800,792,3,800,792,2681,0,0,0
801,793,5,801,793,2685,0,0,0
802,794,3,802,794,2686,0,0,0
803,795,3,803,795,2689,0,0,0
804,796,4,804,796,2692,0,0,0
805,797,3,805,797,2696,0,0,0
806,798,4,806,798,2698,0,0,0
807,798,3,807,798,2698,0,0,0
808,799,4,808,799,2701,0,0,0
809,800,3,809,800,2704,0,0,0
810,801,4,810,801,2709,0,0,0
811,802,3,811,802,2713,0,0,0
812,803,4,812,803,2718,0,0,0
813,804,3,813,804,2723,0,0,0
814,805,4,814,805,2727,0,0,0
815,806,3,815,806,2730,0,0,0
816,807,4,816,807,2734,0,0,0
817,808,3,817,808,2739,0,0,0
818,809,3,818,809,2743,0,0,0
819,810,3,819,810,2746,0,0,0
820,811,4,820,811,2750,0,0,0
821,812,4,821,812,2755,0,0,0
822,812,3,822,812,2755,0,0,0
823,813,4,823,813,2758,0,0,0
824,814,3,824,814,2762,0,0,0
825,814,4,825,814,2762,0,0,0
826,815,3,826,815,2767,0,0,0
827,816,4,827,816,2772,0,0,0
828,817,3,828,817,2777,0,0,0
829,818,4,829,818,2778,0,0,0
830,819,3,830,819,2782,0,0,0
831,820,4,831,820,2786,0,0,0
832,821,3,832,821,2790,0,0,0
833,822,4,833,822,2792,0,0,0
834,823,4,834,823,2797,0,0,0
835,824,3,835,824,2799,0,0,0
836,825,4,836,825,2802,0,0,0
837,825,4,837,825,2802,0,0,0
838,826,3,838,826,2805,0,0,0
839,827,4,839,827,2808,0,0,0
840,828,4,840,828,2811,0,0,0
841,829,3,841,829,2816,0,0,0
842,830,4,842,830,2821,0,0,0
843,831,4,843,831,2825,0,0,0
844,832,3,844,832,2829,0,0,0
845,833,3,845,833,2832,0,0,0
846,834,4,846,834,2835,0,0,0
847,835,3,847,835,2838,0,0,0
848,836,3,848,836,2843,0,0,0
849,837,4,849,837,2848,0,0,0
850,838,3,850,838,2851,0,0,0
851,839,4,851,839,2853,0,0,0
852,839,4,852,839,2853,0,0,0
853,840,3,853,840,2856,0,0,0
854,841,4,854,841,2857,0,0,0
855,842,4,855,842,2859,0,0,0
856,843,3,856,843,2861,0,0,0
857,844,3,857,844,2865,0,0,0
858,845,4,858,845,2870,0,0,0
859,846,4,859,846,2874,0,0,0
860,847,3,860,847,2878,0,0,0
861,848,4,861,848,2883,0,0,0
862,849,4,862,849,2887,0,0,0
863,850,4,863,850,2892,0,0,0
864,850,3,864,850,2892,0,0,0
865,851,3,865,851,2896,0,0,0
866,852,4,866,852,2901,0,0,0
867,853,4,867,853,2905,0,0,0
868,854,3,868,854,2909,0,0,0
869,855,4,869,855,2914,0,0,0
870,856,4,870,856,2918,0,0,0
871,857,4,871,857,2921,0,0,0
872,857,4,872,857,2921,0,0,0
873,858,3,873,858,2925,0,0,0
874,859,4,874,859,2929,0,0,0
875,859,4,875,859,2929,0,0,0
876,860,4,876,860,2932,0,0,0
877,861,3,877,861,2935,0,0,0
878,861,3,878,861,2935,0,0,0
879,862,4,879,862,2940,0,0,0
880,863,4,880,863,2943,0,0,0
881,864,4,881,864,2947,0,0,0
882,865,4,882,865,2950,0,0,0
883,866,3,883,866,2952,0,0,0
884,867,3,884,867,2954,0,0,0
885,868,4,885,868,2958,0,0,0
886,869,4,886,869,2960,0,0,0
887,869,4,887,869,2960,0,0,0
888,870,4,888,870,2965,0,0,0
889,870,3,889,870,2965,0,0,0
890,871,3,890,871,2970,0,0,0
891,871,4,891,871,2970,0,0,0
892,872,4,892,872,2972,0,0,0
893,873,4,893,873,2976,0,0,0
894,874,4,894,874,2980,0,0,0
895,875,4,895,875,2984,0,0,0
896,875,4,896,875,2984,0,0,0
897,875,4,897,875,2984,0,0,0
898,876,4,898,876,2986,0,0,0
899,877,4,899,877,2990,0,0,0
900,878,4,900,878,2995,0,0,0
901,878,4,901,878,2995,0,0,0
902,879,4,902,879,2999,0,0,0
903,880,4,903,880,3003,0,0,0
904,881,3,904,881,3006,0,0,0
905,882,3,905,882,3010,0,0,0
906,882,4,906,882,3010,0,0,0
907,883,4,907,883,3014,0,0,0
908,884,4,908,884,3018,0,0,0
909,885,4,909,885,3023,0,0,0
910,886,4,910,886,3026,0,0,0
911,887,4,911,887,3029,0,0,0
912,888,4,912,888,3033,0,0,0
913,889,3,913,889,3038,0,0,0
914,890,4,914,890,3040,0,0,0
915,891,4,915,891,3044,0,0,0
916,892,4,916,892,3045,0,0,0
917,893,4,917,893,3047,0,0,0
918,894,3,918,894,3048,0,0,0
919,895,4,919,895,3053,0,0,0
920,896,4,920,896,3057,0,0,0
921,896,3,921,896,3057,0,0,0
922,897,4,922,897,3060,0,0,0
923,898,4,923,898,3063,0,0,0
924,899,4,924,899,3066,0,0,0
925,900,4,925,900,3069,0,0,0
926,900,4,926,900,3069,0,0,0
927,901,4,927,901,3073,0,0,0
928,901,3,928,901,3073,0,0,0
929,902,4,929,902,3077,0,0,0
930,903,4,930,903,3081,0,0,0
931,904,4,931,904,3085,0,0,0
932,905,4,932,905,3088,0,0,0
933,906,4,933,906,3091,0,0,0
934,907,4,934,907,3095,0,0,0
935,908,4,935,908,3099,0,0,0
936,909,4,936,909,3103,0,0,0
937,910,3,937,910,3106,0,0,0
938,911,4,938,911,3111,0,0,0
939,911,4,939,911,3111,0,0,0
940,912,4,940,912,3115,0,0,0
941,913,4,941,913,3118,0,0,0
942,914,4,942,914,3121,0,0,0
943,915,4,943,915,3125,0,0,0
944,916,4,944,916,3130,0,0,0
945,917,4,945,917,3133,0,0,0
946,918,4,946,918,3137,0,0,0
947,918,3,947,918,3137,0,0,0
948,919,5,948,919,3142,0,0,0
949,920,3,949,920,3147,0,0,0
950,921,4,950,921,3152,0,0,0
951,922,4,951,922,3154,0,0,0
952,923,4,952,923,3157,0,0,0
953,924,4,953,924,3159,0,0,0
954,925,4,954,925,3163,0,0,0
955,926,4,955,926,3167,0,0,0
956,927,4,956,927,3171,0,0,0
957,928,5,957,928,3175,0,0,0
958,928,4,958,928,3175,0,0,0
959,929,4,959,929,3178,0,0,0
960,930,4,960,930,3182,0,0,0
961,931,4,961,931,3184,0,0,0
962,932,4,962,932,3189,0,0,0
963,933,4,963,933,3193,0,0,0
964,934,3,964,934,3195,0,0,0
965,934,3,965,934,3195,0,0,0
966,935,3,966,935,3199,0,0,0
967,936,4,967,936,3203,0,0,0
968,937,4,968,937,3207,0,0,0
969,937,4,969,937,3207,0,0,0
970,937,4,970,937,3207,0,0,0
971,938,4,971,938,3210,0,0,0
972,938,3,972,938,3210,0,0,0
973,939,4,973,939,3214,0,0,0
974,940,4,974,940,3217,0,0,0
975,941,4,975,941,3222,0,0,0
976,941,4,976,941,3222,0,0,0
977,942,4,977,942,3224,0,0,0
978,943,4,978,943,3228,0,0,0
979,943,4,979,943,3228,0,0,0
980,944,4,980,944,3230,0,0,0
981,944,5,981,944,3230,0,0,0
982,944,4,982,944,3230,0,0,0
983,945,4,983,945,3234,0,0,0
984,946,4,984,946,3238,0,0,0
985,947,4,985,947,3240,0,0,0
986,948,4,986,948,3242,0,0,0
987,948,4,987,948,3242,0,0,0
988,948,4,988,948,3242,0,0,0
989,949,5,989,949,3244,0,0,0
990,950,4,990,950,3249,0,0,0
991,951,4,991,951,3252,0,0,0
992,952,4,992,952,3255,0,0,0
993,953,4,993,953,3257,0,0,0
994,954,4,994,954,3261,0,0,0
995,955,4,995,955,3264,0,0,0
996,956,4,996,956,3266,0,0,0
997,957,4,997,957,3268,0,0,0
998,957,4,998,957,3268,0,0,0
999,958,4,999,958,3270,0,0,0
1000,958,4,1000,958,3270,0,0,0
1001,959,4,1001,959,3274,0,0,0
1002,959,5,1002,959,3274,0,0,0
1003,960,4,1003,960,3277,0,0,0
1004,961,4,1004,961,3280,0,0,0
1005,962,5,1005,962,3285,0,0,0
1006,963,4,1006,963,3287,0,0,0
1007,963,4,1007,963,3287,0,0,0
1008,964,4,1008,964,3291,0,0,0
1009,965,5,1009,965,3296,0,0,0
1010,966,4,1010,966,3301,0,0,0
1011,967,4,1011,967,3303,0,0,0
1012,968,4,1012,968,3308,0,0,0
1013,969,4,1013,969,3311,0,0,0
1014,969,5,1014,969,3311,0,0,0
1015,970,4,1015,970,3315,0,0,0
1016,971,4,1016,971,3318,0,0,0
1017,971,5,1017,971,3318,0,0,0
1018,972,4,1018,972,3321,0,0,0
1019,972,4,1019,972,3321,0,0,0
1020,973,4,1020,973,3326,0,0,0
1021,973,5,1021,973,3326,0,0,0
1022,974,4,1022,974,3328,0,0,0
1023,974,4,1023,974,3328,0,0,0
1024,975,5,1024,975,3332,0,0,0
1025,976,4,1025,976,3337,0,0,0
1026,977,4,1026,977,3341,0,0,0
1027,978,5,1027,978,3343,0,0,0
1028,979,4,1028,979,3348,0,0,0
1029,980,4,1029,980,3353,0,0,0
1030,981,4,1030,981,3357,0,0,0
1031,982,4,1031,982,3360,0,0,0
1032,983,4,1032,983,3365,0,0,0
1033,983,5,1033,983,3365,0,0,0
1034,984,4,1034,984,3366,0,0,0
1035,985,4,1035,985,3369,0,0,0
1036,986,5,1036,986,3372,0,0,0
1037,986,4,1037,986,3372,0,0,0
1038,987,5,1038,987,3377,0,0,0
1039,988,4,1039,988,3381,0,0,0
1040,989,4,1040,989,3386,0,0,0
1041,989,5,1041,989,3386,0,0,0
1042,990,4,1042,990,3391,0,0,0
1043,991,5,1043,991,3394,0,0,0
1044,992,4,1044,992,3398,0,0,0
1045,992,4,1045,992,3398,0,0,0
1046,992,5,1046,992,3398,0,0,0
1047,993,4,1047,993,3403,0,0,0
1048,993,5,1048,993,3403,0,0,0
1049,993,4,1049,993,3403,0,0,0
1050,994,5,1050,994,3407,0,0,0
1051,995,4,1051,995,3411,0,0,0
1052,996,4,1052,996,3416,0,0,0
1053,997,4,1053,997,3418,0,0,0
1054,998,5,1054,998,3421,0,0,0
1055,999,5,1055,999,3424,0,0,0
1056,999,4,1056,999,3424,0,0,0
1057,999,4,1057,999,3424,0,0,0
1058,1000,5,1058,1000,3429,0,0,0
1059,1001,5,1059,1001,3433,0,0,0
1060,1002,4,1060,1002,3437,0,0,0
1061,1003,4,1061,1003,3440,0,0,0
1062,1003,5,1062,1003,3440,0,0,0
1063,1004,5,1063,1004,3442,0,0,0
1064,1006,4,1064,1006,3449,0,0,0
1065,1007,5,1065,1007,3451,0,0,0
1066,1008,4,1066,1008,3455,0,0,0
1067,1008,5,1067,1008,3455,0,0,0
1068,1008,4,1068,1008,3455,0,0,0
1069,1009,5,1069,1009,3459,0,0,0
1070,1010,5,1070,1010,3463,0,0,0
1071,1010,4,1071,1010,3463,0,0,0
1072,1011,5,1072,1011,3468,0,0,0
1073,1012,4,1073,1012,3472,0,0,0
1074,1012,5,1074,1012,3472,0,0,0
1075,1013,4,1075,1013,3475,0,0,0
1076,1014,5,1076,1014,3477,0,0,0
1077,1014,5,1077,1014,3477,0,0,0
1078,1015,4,1078,1015,3479,0,0,0
1079,1015,5,1079,1015,3479,0,0,0
1080,1016,4,1080,1016,3483,0,0,0
1081,1016,5,1081,1016,3483,0,0,0
1082,1017,4,1082,1017,3487,0,0,0
1083,1018,5,1083,1018,3489,0,0,0
1084,1019,4,1084,1019,3490,0,0,0
1085,1020,4,1085,1020,3494,0,0,0
1086,1021,5,1086,1021,3499,0,0,0
1087,1022,4,1087,1022,3502,0,0,0
1088,1023,5,1088,1023,3506,0,0,0
1089,1024,4,1089,1024,3510,0,0,0
1090,1025,5,1090,1025,3512,0,0,0
1091,1025,5,1091,1025,3512,0,0,0
1092,1026,5,1092,1026,3516,0,0,0
1093,1027,5,1093,1027,3519,0,0,0
1094,1027,4,1094,1027,3519,0,0,0
1095,1028,4,1095,1028,3523,0,0,0
1096,1029,5,1096,1029,3527,0,0,0
1097,1030,4,1097,1030,3529,0,0,0
1098,1031,5,1098,1031,3533,0,0,0
1099,1032,5,1099,1032,3537,0,0,0
1100,1033,4,1100,1033,3541,0,0,0
1101,1034,5,1101,1034,3543,0,0,0
1102,1035,5,1102,1035,3548,0,0,0
1103,1036,4,1103,1036,3551,0,0,0
1104,1037,5,1104,1037,3556,0,0,0
1105,1038,5,1105,1038,3560,0,0,0
1106,1039,5,1106,1039,3565,0,0,0
1107,1040,4,1107,1040,3570,0,0,0
1108,1040,5,1108,1040,3570,0,0,0
1109,1041,4,1109,1041,3573,0,0,0
1110,1042,5,1110,1042,3578,0,0,0
1111,1043,5,1111,1043,3582,0,0,0
1112,1044,5,1112,1044,3585,0,0,0
1113,1045,4,1113,1045,3587,0,0,0
1114,1046,5,1114,1046,3591,0,0,0
1115,1047,5,1115,1047,3595,0,0,0
1116,1048,4,1116,1048,3600,0,0,0
1117,1049,4,1117,1049,3605,0,0,0
1118,1049,4,1118,1049,3605,0,0,0
1119,1049,5,1119,1049,3605,0,0,0
1120,1049,5,1120,1049,3605,0,0,0
1121,1050,5,1121,1050,3608,0,0,0
1122,1051,4,1122,1051,3612,0,0,0
1123,1052,5,1123,1052,3615,0,0,0
1124,1053,5,1124,1053,3617,0,0,0
1125,1054,5,1125,1054,3620,0,0,0
1126,1054,5,1126,1054,3620,0,0,0
1127,1055,5,1127,1055,3622,0,0,0
1128,1056,5,1128,1056,3627,0,0,0
1129,1057,4,1129,1057,3632,0,0,0
1130,1058,5,1130,1058,3635,0,0,0
1131,1059,5,1131,1059,3638,0,0,0
1132,1059,5,1132,1059,3638,0,0,0
1133,1060,5,1133,1060,3643,0,0,0
1134,1061,5,1134,1061,3647,0,0,0
1135,1061,5,1135,1061,3647,0,0,0
1136,1062,4,1136,1062,3652,0,0,0
1137,1063,5,1137,1063,3656,0,0,0
1138,1064,5,1138,1064,3659,0,0,0
1139,1065,5,1139,1065,3662,0,0,0
1140,1065,5,1140,1065,3662,0,0,0
1141,1066,5,1141,1066,3664,0,0,0
1142,1067,5,1142,1067,3669,0,0,0
1143,1068,5,1143,1068,3673,0,0,0
1144,1069,5,1144,1069,3676,0,0,0
1145,1069,4,1145,1069,3676,0,0,0
1146,1069,4,1146,1069,3676,0,0,0
1147,1070,5,1147,1070,3679,0,0,0
1148,1070,5,1148,1070,3679,0,0,0
1149,1071,5,1149,1071,3682,0,0,0
1150,1072,5,1150,1072,3684,0,0,0
1151,1073,5,1151,1073,3686,0,0,0
1152,1074,5,1152,1074,3691,0,0,0
1153,1075,5,1153,1075,3695,0,0,0
1154,1075,5,1154,1075,3695,0,0,0
1155,1076,5,1155,1076,3699,0,0,0
1156,1077,5,1156,1077,3702,0,0,0
1157,1078,5,1157,1078,3707,0,0,0
1158,1079,5,1158,1079,3711,0,0,0
1159,1079,5,1159,1079,3711,0,0,0
1160,1080,5,1160,1080,3716,0,0,0
1161,1080,5,1161,1080,3716,0,0,0
1162,1081,5,1162,1081,3721,0,0,0
1163,1082,5,1163,1082,3725,0,0,0
1164,1083,5,1164,1083,3729,0,0,0
1165,1084,6,1165,1084,3732,0,0,0
1166,1085,5,1166,1085,3737,0,0,0
1167,1085,5,1167,1085,3737,0,0,0
1168,1086,5,1168,1086,3741,0,0,0
1169,1087,5,1169,1087,3744,0,0,0
1170,1088,5,1170,1088,3748,0,0,0
1171,1089,5,1171,1089,3751,0,0,0
1172,1089,5,1172,1089,3751,0,0,0
1173,1090,5,1173,1090,3755,0,0,0
1174,1090,5,1174,1090,3755,0,0,0
1175,1090,5,1175,1090,3755,0,0,0
1176,1091,6,1176,1091,3760,0,0,0
1177,1092,5,1177,1092,3765,0,0,0
1178,1093,5,1178,1093,3769,0,0,0
1179,1094,5,1179,1094,3771,0,0,0
1180,1095,5,1180,1095,3775,0,0,0
1181,1096,6,1181,1096,3779,0,0,0
1182,1096,6,1182,1096,3779,0,0,0
1183,1097,5,1183,1097,3784,0,0,0
1184,1098,5,1184,1098,3789,0,0,0
1185,1098,5,1185,1098,3789,0,0,0
1186,1099,5,1186,1099,3794,0,0,0
1187,1101,5,1187,1101,3801,0,0,0
1188,1102,5,1188,1102,3805,0,0,0
1189,1103,5,1189,1103,3809,0,0,0
1190,1104,5,1190,1104,3811,0,0,0
1191,1105,5,1191,1105,3813,0,0,0
1192,1105,5,1192,1105,3813,0,0,0
1193,1106,5,1193,1106,3817,0,0,0
1194,1107,6,1194,1107,3822,0,0,0
1195,1108,5,1195,1108,3826,0,0,0
1196,1109,5,1196,1109,3831,0,0,0
1197,1110,5,1197,1110,3835,0,0,0
1198,1110,6,1198,1110,3835,0,0,0
1199,1111,5,1199,1111,3837,0,0,0
1200,1111,5,1200,1111,3837,0,0,0
1201,1112,5,1201,1112,3841,0,0,0
1202,1112,6,1202,1112,3841,0,0,0
1203,1113,5,1203,1113,3843,0,0,0
1204,1114,5,1204,1114,3848,0,0,0
1205,1115,5,1205,1115,3853,0,0,0
1206,1116,6,1206,1116,3857,0,0,0
1207,1116,5,1207,1116,3857,0,0,0
1208,1116,5,1208,1116,3857,0,0,0
1209,1117,6,1209,1117,3861,0,0,0
1210,1118,5,1210,1118,3866,0,0,0
1211,1118,5,1211,1118,3866,0,0,0
1212,1119,5,1212,1119,3868,0,0,0
1213,1119,6,1213,1119,3868,0,0,0
1214,1120,6,1214,1120,3871,0,0,0
1215,1120,5,1215,1120,3871,0,0,0
1216,1121,6,1216,1121,3874,0,0,0
1217,1122,5,1217,1122,3878,0,0,0
1218,1123,5,1218,1123,3881,0,0,0
1219,1124,5,1219,1124,3884,0,0,0
1220,1125,6,1220,1125,3887,0,0,0
1221,1126,5,1221,1126,3892,0,0,0
1222,1128,5,1222,1128,3898,0,0,0
1223,1128,5,1223,1128,3898,0,0,0
1224,1129,6,1224,1129,3900,0,0,0
1225,1130,5,1225,1130,3905,0,0,0
1226,1131,6,1226,1131,3910,0,0,0
1227,1132,5,1227,1132,3915,0,0,0
1228,1133,5,1228,1133,3920,0,0,0
1229,1133,6,1229,1133,3920,0,0,0
1230,1134,5,1230,1134,3924,0,0,0
1231,1135,6,1231,1135,3928,0,0,0
1232,1136,5,1232,1136,3931,0,0,0
1233,1137,5,1233,1137,3935,0,0,0
1234,1138,6,1234,1138,3939,0,0,0
1235,1139,5,1235,1139,3941,0,0,0
1236,1140,5,1236,1140,3946,0,0,0
1237,1141,6,1237,1141,3947,0,0,0
1238,1142,5,1238,1142,3951,0,0,0
1239,1142,6,1239,1142,3951,0,0,0
1240,1143,5,1240,1143,3956,0,0,0
1241,1144,6,1241,1144,3958,0,0,0
1242,1144,5,1242,1144,3958,0,0,0
1243,1145,5,1243,1145,3960,0,0,0
1244,1146,6,1244,1146,3964,0,0,0
1245,1146,5,1245,1146,3964,0,0,0
1246,1146,6,1246,1146,3964,0,0,0
1247,1147,5,1247,1147,3969,0,0,0
1248,1147,5,1248,1147,3969,0,0,0
1249,1148,6,1249,1148,3974,0,0,0
1250,1149,5,1250,1149,3977,0,0,0
1251,1150,6,1251,1150,3979,0,0,0
1252,1151,5,1252,1151,3982,0,0,0
1253,1152,5,1253,1152,3986,0,0,0
1254,1153,5,1254,1153,3991,0,0,0
1255,1154,6,1255,1154,3995,0,0,0
1256,1154,5,1256,1154,3995,0,0,0
1257,1154,5,1257,1154,3995,0,0,0
1258,1154,5,1258,1154,3995,0,0,0
1259,1154,6,1259,1154,3995,0,0,0
1260,1155,5,1260,1155,4000,0,0,0
1261,1156,6,1261,1156,4003,0,0,0
1262,1156,6,1262,1156,4003,0,0,0
1263,1157,5,1263,1157,4008,0,0,0
1264,1157,6,1264,1157,4008,0,0,0
1265,1158,5,1265,1158,4012,0,0,0
1266,1158,6,1266,1158,4012,0,0,0
1267,1159,6,1267,1159,4014,0,0,0
1268,1159,5,1268,1159,4014,0,0,0
1269,1160,6,1269,1160,4019,0,0,0
1270,1161,5,1270,1161,4021,0,0,0
1271,1162,6,1271,1162,4025,0,0,0
1272,1163,6,1272,1163,4029,0,0,0
1273,1164,5,1273,1164,4033,0,0,0
1274,1165,6,1274,1165,4037,0,0,0
1275,1166,5,1275,1166,4042,0,0,0
1276,1167,6,1276,1167,4045,0,0,0
1277,1168,5,1277,1168,4050,0,0,0
1278,1168,6,1278,1168,4050,0,0,0
1279,1169,6,1279,1169,4053,0,0,0
1280,1170,5,1280,1170,4057,0,0,0
1281,1171,6,1281,1171,4061,0,0,0
1282,1171,5,1282,1171,4061,0,0,0
1283,1172,6,1283,1172,4066,0,0,0
1284,1173,5,1284,1173,4070,0,0,0
1285,1173,6,1285,1173,4070,0,0,0
1286,1174,6,1286,1174,4072,0,0,0
1287,1175,5,1287,1175,4074,0,0,0
1288,1175,6,1288,1175,4074,0,0,0
1289,1175,6,1289,1175,4074,0,0,0
1290,1176,5,1290,1176,4078,0,0,0
1291,1178,6,1291,1178,4084,0,0,0
1292,1178,6,1292,1178,4084,0,0,0
1293,1179,6,1293,1179,4089,0,0,0
1294,1179,6,1294,1179,4089,0,0,0
1295,1179,5,1295,1179,4089,0,0,0
1296,1179,6,1296,1179,4089,0,0,0
1297,1180,6,1297,1180,4092,0,0,0
1298,1181,6,1298,1181,4095,0,0,0
1299,1182,6,1299,1182,4100,0,0,0
1300,1183,5,1300,1183,4104,0,0,0
1301,1184,6,1301,1184,4107,0,0,0
1302,1185,6,1302,1185,4111,0,0,0
1303,1185,6,1303,1185,4111,0,0,0
1304,1185,5,1304,1185,4111,0,0,0
1305,1186,6,1305,1186,4115,0,0,0
1306,1187,6,1306,1187,4117,0,0,0
1307,1188,5,1307,1188,4122,0,0,0
1308,1189,5,1308,1189,4126,0,0,0
1309,1190,6,1309,1190,4131,0,0,0
1310,1190,6,1310,1190,4131,0,0,0
1311,1191,6,1311,1191,4135,0,0,0
1312,1191,4,1312,1191,4135,0,0,0
1313,1192,6,1313,1192,4137,0,0,0
1314,1193,7,1314,1193,4141,0,0,0
1315,1194,5,1315,1194,4144,0,0,0
1316,1195,5,1316,1195,4148,0,0,0
1317,1195,6,1317,1195,4148,0,0,0
1318,1196,6,1318,1196,4152,0,0,0
1319,1197,6,1319,1197,4156,0,0,0
1320,1198,6,1320,1198,4159,0,0,0
1321,1198,5,1321,1198,4159,0,0,0
1322,1198,5,1322,1198,4159,0,0,0
1323,1199,6,1323,1199,4164,0,0,0
1324,1200,7,1324,1200,4168,0,0,0
1325,1200,6,1325,1200,4168,0,0,0
1326,1200,6,1326,1200,4168,0,0,0
1327,1201,5,1327,1201,4171,0,0,0
1328,1202,6,1328,1202,4174,0,0,0
1329,1203,6,1329,1203,4178,0,0,0
1330,1203,6,1330,1203,4178,0,0,0
1331,1203,6,1331,1203,4178,0,0,0
1332,1204,5,1332,1204,4183,0,0,0
1333,1205,6,1333,1205,4187,0,0,0
1334,1206,6,1334,1206,4191,0,0,0
1335,1207,6,1335,1207,4193,0,0,0
1336,1208,6,1336,1208,4198,0,0,0
1337,1209,6,1337,1209,4203,0,0,0
1338,1210,6,1338,1210,4206,0,0,0
1339,1210,6,1339,1210,4206,0,0,0
1340,1211,6,1340,1211,4210,0,0,0
1341,1212,6,1341,1212,4214,0,0,0
1342,1213,6,1342,1213,4217,0,0,0
1343,1213,5,1343,1213,4217,0,0,0
1344,1214,6,1344,1214,4219,0,0,0
1345,1215,6,1345,1215,4223,0,0,0
1346,1216,6,1346,1216,4227,0,0,0
1347,1217,6,1347,1217,4230,0,0,0
1348,1218,6,1348,1218,4235,0,0,0
1349,1219,6,1349,1219,4240,0,0,0
1350,1220,6,1350,1220,4242,0,0,0
1351,1221,6,1351,1221,4244,0,0,0
1352,1222,6,1352,1222,4249,0,0,0
1353,1223,5,1353,1223,4254,0,0,0
1354,1224,5,1354,1224,4259,0,0,0
1355,1224,6,1355,1224,4259,0,0,0
1356,1225,6,1356,1225,4263,0,0,0
1357,1226,6,1357,1226,4268,0,0,0
1358,1226,6,1358,1226,4268,0,0,0
1359,1227,6,1359,1227,4273,0,0,0
1360,1228,6,1360,1228,4278,0,0,0
1361,1229,6,1361,1229,4279,0,0,0
1362,1230,6,1362,1230,4283,0,0,0
1363,1231,6,1363,1231,4285,0,0,0
1364,1231,6,1364,1231,4285,0,0,0
1365,1231,6,1365,1231,4285,0,0,0
1366,1232,7,1366,1232,4290,0,0,0
1367,1232,6,1367,1232,4290,0,0,0
1368,1233,6,1368,1233,4294,0,0,0
1369,1233,6,1369,1233,4294,0,0,0
1370,1234,6,1370,1234,4296,0,0,0
1371,1235,6,1371,1235,4300,0,0,0
1372,1235,6,1372,1235,4300,0,0,0
1373,1236,7,1373,1236,4305,0,0,0
1374,1236,6,1374,1236,4305,0,0,0
1375,1237,6,1375,1237,4307,0,0,0
1376,1238,6,1376,1238,4311,0,0,0
1377,1238,6,1377,1238,4311,0,0,0
1378,1239,6,1378,1239,4316,0,0,0
1379,1240,6,1379,1240,4318,0,0,0
1380,1241,6,1380,1241,4322,0,0,0
1381,1242,6,1381,1242,4327,0,0,0
1382,1242,6,1382,1242,4327,0,0,0
1383,1242,5,1383,1242,4327,0,0,0
1384,1243,6,1384,1243,4331,0,0,0
1385,1244,6,1385,1244,4332,0,0,0
1386,1244,6,1386,1244,4332,0,0,0
1387,1245,6,1387,1245,4337,0,0,0
1388,1246,7,1388,1246,4341,0,0,0
1389,1246,6,1389,1246,4341,0,0,0
1390,1247,6,1390,1247,4345,0,0,0
1391,1248,6,1391,1248,4349,0,0,0
1392,1249,7,1392,1249,4354,0,0,0
1393,1250,6,1393,1250,4358,0,0,0
1394,1252,6,1394,1252,4365,0,0,0
1395,1253,6,1395,1253,4369,0,0,0
1396,1253,6,1396,1253,4369,0,0,0
1397,1254,7,1397,1254,4371,0,0,0
1398,1255,6,1398,1255,4376,0,0,0
1399,1255,6,1399,1255,4376,0,0,0
1400,1255,6,1400,1255,4376,0,0,0
1401,1256,7,1401,1256,4378,0,0,0
1402,1256,6,1402,1256,4378,0,0,0
1403,1256,6,1403,1256,4378,0,0,0
1404,1257,6,1404,1257,4381,0,0,0
1405,1257,7,1405,1257,4381,0,0,0
1406,1258,6,1406,1258,4386,0,0,0
1407,1259,6,1407,1259,4391,0,0,0
1408,1259,7,1408,1259,4391,0,0,0
1409,1260,6,1409,1260,4396,0,0,0
1410,1260,6,1410,1260,4396,0,0,0
1411,1261,7,1411,1261,4400,0,0,0
1412,1261,6,1412,1261,4400,0,0,0
1413,1262,6,1413,1262,4404,0,0,0
1414,1262,6,1414,1262,4404,0,0,0
1415,1262,7,1415,1262,4404,0,0,0
1416,1263,6,1416,1263,4409,0,0,0
1417,1263,8,1417,1263,4409,0,0,0
1418,1264,6,1418,1264,4413,0,0,0
1419,1264,6,1419,1264,4413,0,0,0
1420,1265,7,1420,1265,4415,0,0,0
1421,1265,6,1421,1265,4415,0,0,0
1422,1266,6,1422,1266,4420,0,0,0
1423,1267,7,1423,1267,4424,0,0,0
1424,1267,6,1424,1267,4424,0,0,0
1425,1267,6,1425,1267,4424,0,0,0
1426,1267,8,1426,1267,4424,0,0,0
1427,1268,6,1427,1268,4429,0,0,0
1428,1269,7,1428,1269,4433,0,0,0
1429,1269,6,1429,1269,4433,0,0,0
1430,1269,6,1430,1269,4433,0,0,0
1431,1269,6,1431,1269,4433,0,0,0
1432,1269,6,1432,1269,4433,0,0,0
1433,1270,6,1433,1270,4437,0,0,0
1434,1271,6,1434,1271,4439,0,0,0
1435,1272,7,1435,1272,4441,0,0,0
1436,1272,6,1436,1272,4441,0,0,0
1437,1272,6,1437,1272,4441,0,0,0
1438,1273,7,1438,1273,4443,0,0,0
1439,1274,6,1439,1274,4445,0,0,0
1440,1274,7,1440,1274,4445,0,0,0
1441,1275,6,1441,1275,4449,0,0,0
1442,1275,6,1442,1275,4449,0,0,0
1443,1275,7,1443,1275,4449,0,0,0
1444,1276,6,1444,1276,4454,0,0,0
1445,1276,7,1445,1276,4454,0,0,0
1446,1276,6,1446,1276,4454,0,0,0
1447,1276,6,1447,1276,4454,0,0,0
1448,1277,7,1448,1277,4458,0,0,0
1449,1277,6,1449,1277,4458,0,0,0
1450,1277,7,1450,1277,4458,0,0,0
1451,1278,6,1451,1278,4460,0,0,0
1452,1279,7,1452,1279,4465,0,0,0
1453,1280,6,1453,1280,4469,0,0,0
1454,1281,7,1454,1281,4472,0,0,0
1455,1281,6,1455,1281,4472,0,0,0
1456,1281,6,1456,1281,4472,0,0,0
1457,1282,7,1457,1282,4476,0,0,0
1458,1282,6,1458,1282,4476,0,0,0
1459,1283,7,1459,1283,4479,0,0,0
1460,1283,6,1460,1283,4479,0,0,0
1461,1284,7,1461,1284,4481,0,0,0
1462,1285,6,1462,1285,4486,0,0,0
1463,1286,7,1463,1286,4488,0,0,0
1464,1287,6,1464,1287,4491,0,0,0
1465,1287,7,1465,1287,4491,0,0,0
1466,1288,6,1466,1288,4496,0,0,0
1467,1289,7,1467,1289,4500,0,0,0
1468,1290,6,1468,1290,4504,0,0,0
1469,1290,7,1469,1290,4504,0,0,0
1470,1290,6,1470,1290,4504,0,0,0
1471,1291,7,1471,1291,4507,0,0,0
1472,1292,7,1472,1292,4510,0,0,0
1473,1293,6,1473,1293,4514,0,0,0
1474,1294,7,1474,1294,4519,0,0,0
1475,1295,7,1475,1295,4523,0,0,0
1476,1296,6,1476,1296,4526,0,0,0
1477,1297,7,1477,1297,4531,0,0,0
1478,1297,6,1478,1297,4531,0,0,0
1479,1297,7,1479,1297,4531,0,0,0
1480,1298,7,1480,1298,4536,0,0,0
1481,1299,5,1481,1299,4537,0,0,0
1482,1299,7,1482,1299,4537,0,0,0
1483,1299,6,1483,1299,4537,0,0,0
1484,1300,7,1484,1300,4540,0,0,0
1485,1301,7,1485,1301,4544,0,0,0
1486,1302,6,1486,1302,4547,0,0,0
1487,1302,7,1487,1302,4547,0,0,0
1488,1303,7,1488,1303,4550,0,0,0
1489,1303,6,1489,1303,4550,0,0,0
1490,1303,7,1490,1303,4550,0,0,0
1491,1304,6,1491,1304,4554,0,0,0
1492,1304,7,1492,1304,4554,0,0,0
1493,1305,7,1493,1305,4556,0,0,0
1494,1306,6,1494,1306,4558,0,0,0
1495,1306,7,1495,1306,4558,0,0,0
1496,1307,7,1496,1307,4561,0,0,0
1497,1307,7,1497,1307,4561,0,0,0
1498,1308,7,1498,1308,4565,0,0,0
1499,1308,6,1499,1308,4565,0,0,0
1500,1309,7,1500,1309,4570,0,0,0
1501,1309,7,1501,1309,4570,0,0,0
1502,1310,7,1502,1310,4572,0,0,0
1503,1310,6,1503,1310,4572,0,0,0
1504,1310,6,1504,1310,4572,0,0,0
1505,1311,7,1505,1311,4577,0,0,0
1506,1312,7,1506,1312,4582,0,0,0
1507,1313,7,1507,1313,4587,0,0,0
1508,1314,7,1508,1314,4590,0,0,0
1509,1314,6,1509,1314,4590,0,0,0
1510,1314,7,1510,1314,4590,0,0,0
1511,1315,7,1511,1315,4595,0,0,0
1512,1315,7,1512,1315,4595,0,0,0
1513,1317,7,1513,1317,4602,0,0,0
1514,1318,6,1514,1318,4607,0,0,0
1515,1320,7,1515,1320,4615,0,0,0
1516,1321,7,1516,1321,4618,0,0,0
1517,1321,7,1517,1321,4618,0,0,0
1518,1322,7,1518,1322,4621,0,0,0
1519,1323,7,1519,1323,4625,0,0,0
1520,1324,6,1520,1324,4628,0,0,0
1521,1325,6,1521,1325,4632,0,0,0
1522,1325,7,1522,1325,4632,0,0,0
1523,1325,6,1523,1325,4632,0,0,0
1524,1326,7,1524,1326,4636,0,0,0
1525,1327,7,1525,1327,4640,0,0,0
1526,1328,7,1526,1328,4645,0,0,0
1527,1328,7,1527,1328,4645,0,0,0
1528,1328,7,1528,1328,4645,0,0,0
1529,1329,7,1529,1329,4647,0,0,0
1530,1331,7,1530,1331,4653,0,0,0
1531,1332,7,1531,1332,4656,0,0,0
1532,1333,7,1532,1333,4660,0,0,0
1533,1333,7,1533,1333,4660,0,0,0
1534,1333,7,1534,1333,4660,0,0,0
1535,1334,7,1535,1334,4664,0,0,0
1536,1334,6,1536,1334,4664,0,0,0
1537,1334,7,1537,1334,4664,0,0,0
1538,1335,7,1538,1335,4669,0,0,0
1539,1335,7,1539,1335,4669,0,0,0
1540,1335,7,1540,1335,4669,0,0,0
1541,1336,7,1541,1336,4674,0,0,0
1542,1336,7,1542,1336,4674,0,0,0
1543,1336,7,1543,1336,4674,0,0,0
1544,1336,7,1544,1336,4674,0,0,0
1545,1337,7,1545,1337,4678,0,0,0
1546,1337,7,1546,1337,4678,0,0,0
1547,1337,6,1547,1337,4678,0,0,0
1548,1337,7,1548,1337,4678,0,0,0
1549,1337,7,1549,1337,4678,0,0,0
1550,1337,7,1550,1337,4678,0,0,0
1551,1337,7,1551,1337,4678,0,0,0
1552,1337,7,1552,1337,4678,0,0,0
1553,1338,7,1553,1338,4682,0,0,0
1554,1339,7,1554,1339,4686,0,0,0
1555,1339,7,1555,1339,4686,0,0,0
1556,1339,8,1556,1339,4686,0,0,0
1557,1340,7,1557,1340,4691,0,0,0
1558,1341,7,1558,1341,4696,0,0,0
1559,1341,7,1559,1341,4696,0,0,0
1560,1343,7,1560,1343,4703,0,0,0
1561,1343,7,1561,1343,4703,0,0,0
1562,1344,7,1562,1344,4705,0,0,0
1563,1344,7,1563,1344,4705,0,0,0
1564,1344,7,1564,1344,4705,0,0,0
1565,1344,7,1565,1344,4705,0,0,0
1566,1344,7,1566,1344,4705,0,0,0
1567,1344,7,1567,1344,4705,0,0,0
1568,1344,7,1568,1344,4705,0,0,0
1569,1345,7,1569,1345,4707,0,0,0
1570,1345,7,1570,1345,4707,0,0,0
1571,1346,7,1571,1346,4712,0,0,0
1572,1346,8,1572,1346,4712,0,0,0
1573,1347,7,1573,1347,4716,0,0,0
1574,1348,7,1574,1348,4720,0,0,0
1575,1348,7,1575,1348,4720,0,0,0
1576,1348,8,1576,1348,4720,0,0,0
1577,1349,7,1577,1349,4723,0,0,0
1578,1350,7,1578,1350,4726,0,0,0
1579,1351,7,1579,1351,4730,0,0,0
1580,1352,7,1580,1352,4733,0,0,0
1581,1353,8,1581,1353,4735,0,0,0
1582,1353,7,1582,1353,4735,0,0,0
1583,1353,7,1583,1353,4735,0,0,0
1584,1353,7,1584,1353,4735,0,0,0
1585,1354,7,1585,1354,4738,0,0,0
1586,1355,7,1586,1355,4741,0,0,0
1587,1356,7,1587,1356,4745,0,0,0
1588,1356,7,1588,1356,4745,0,0,0
1589,1356,8,1589,1356,4745,0,0,0
1590,1357,7,1590,1357,4749,0,0,0
1591,1357,7,1591,1357,4749,0,0,0
1592,1357,7,1592,1357,4749,0,0,0
1593,1358,8,1593,1358,4753,0,0,0
1594,1358,7,1594,1358,4753,0,0,0
1595,1359,7,1595,1359,4758,0,0,0
1596,1360,7,1596,1360,4762,0,0,0
1597,1360,8,1597,1360,4762,0,0,0
1598,1361,7,1598,1361,4764,0,0,0
1599,1362,7,1599,1362,4769,0,0,0
1600,1362,8,1600,1362,4769,0,0,0
1601,1363,7,1601,1363,4773,0,0,0
1602,1363,7,1602,1363,4773,0,0,0
1603,1364,8,1603,1364,4777,0,0,0
1604,1365,7,1604,1365,4781,0,0,0
1605,1365,7,1605,1365,4781,0,0,0
1606,1366,7,1606,1366,4785,0,0,0
1607,1367,8,1607,1367,4787,0,0,0
1608,1367,7,1608,1367,4787,0,0,0
1609,1368,7,1609,1368,4789,0,0,0
1610,1368,8,1610,1368,4789,0,0,0
1611,1368,7,1611,1368,4789,0,0,0
1612,1368,7,1612,1368,4789,0,0,0
1613,1369,8,1613,1369,4793,0,0,0
1614,1370,7,1614,1370,4797,0,0,0
1615,1370,8,1615,1370,4797,0,0,0
1616,1370,7,1616,1370,4797,0,0,0
1617,1371,7,1617,1371,4802,0,0,0
1618,1371,8,1618,1371,4802,0,0,0
1619,1372,7,1619,1372,4807,0,0,0
1620,1373,7,1620,1373,4811,0,0,0
1621,1373,7,1621,1373,4811,0,0,0
1622,1374,7,1622,1374,4816,0,0,0
1623,1374,7,1623,1374,4816,0,0,0
1624,1375,7,1624,1375,4819,0,0,0
1625,1375,8,1625,1375,4819,0,0,0
1626,1376,7,1626,1376,4820,0,0,0
1627,1377,8,1627,1377,4824,0,0,0
1628,1378,7,1628,1378,4826,0,0,0
1629,1378,8,1629,1378,4826,0,0,0
1630,1379,6,1630,1379,4828,0,0,0
1631,1380,8,1631,1380,4832,0,0,0
1632,1380,7,1632,1380,4832,0,0,0
1633,1381,8,1633,1381,4836,0,0,0
1634,1381,7,1634,1381,4836,0,0,0
1635,1382,8,1635,1382,4839,0,0,0
1636,1382,7,1636,1382,4839,0,0,0
1637,1384,8,1637,1384,4845,0,0,0
1638,1385,8,1638,1385,4848,0,0,0
1639,1386,7,1639,1386,4851,0,0,0
1640,1387,8,1640,1387,4855,0,0,0
1641,1387,7,1641,1387,4855,0,0,0
1642,1390,7,1642,1390,4864,0,0,0
1643,1390,7,1643,1390,4864,0,0,0
1644,1391,8,1644,1391,4866,0,0,0
1645,1392,7,1645,1392,4869,0,0,0
1646,1392,7,1646,1392,4869,0,0,0
1647,1392,7,1647,1392,4869,0,0,0
1648,1393,8,1648,1393,4871,0,0,0
1649,1394,7,1649,1394,4875,0,0,0
1650,1395,8,1650,1395,4877,0,0,0
1651,1395,7,1651,1395,4877,0,0,0
1652,1395,7,1652,1395,4877,0,0,0
1653,1395,7,1653,1395,4877,0,0,0
1654,1396,7,1654,1396,4879,0,0,0
1655,1396,8,1655,1396,4879,0,0,0
1656,1397,7,1656,1397,4883,0,0,0
1657,1397,8,1657,1397,4883,0,0,0
1658,1397,7,1658,1397,4883,0,0,0
1659,1400,8,1659,1400,4893,0,0,0
1660,1400,8,1660,1400,4893,0,0,0
1661,1401,7,1661,1401,4897,0,0,0
1662,1402,8,1662,1402,4900,0,0,0
1663,1403,7,1663,1403,4905,0,0,0
1664,1403,8,1664,1403,4905,0,0,0
1665,1404,8,1665,1404,4908,0,0,0
1666,1405,8,1666,1405,4912,0,0,0
1667,1406,7,1667,1406,4915,0,0,0
1668,1407,8,1668,1407,4920,0,0,0
1669,1408,7,1669,1408,4924,0,0,0
1670,1409,8,1670,1409,4925,0,0,0
1671,1409,8,1671,1409,4925,0,0,0
1672,1409,7,1672,1409,4925,0,0,0
1673,1409,8,1673,1409,4925,0,0,0
1674,1410,8,1674,1410,4929,0,0,0
1675,1410,7,1675,1410,4929,0,0,0
1676,1411,8,1676,1411,4934,0,0,0
1677,1413,8,1677,1413,4941,0,0,0
1678,1413,8,1678,1413,4941,0,0,0
1679,1413,7,1679,1413,4941,0,0,0
1680,1413,7,1680,1413,4941,0,0,0
1681,1414,8,1681,1414,4946,0,0,0
1682,1414,7,1682,1414,4946,0,0,0
1683,1414,8,1683,1414,4946,0,0,0
1684,1414,8,1684,1414,4946,0,0,0
1685,1415,7,1685,1415,4948,0,0,0
1686,1416,8,1686,1416,4950,0,0,0
1687,1417,8,1687,1417,4952,0,0,0
1688,1417,8,1688,1417,4952,0,0,0
1689,1418,7,1689,1418,4956,0,0,0
1690,1418,8,1690,1418,4956,0,0,0
1691,1419,8,1691,1419,4961,0,0,0
1692,1419,8,1692,1419,4961,0,0,0
1693,1420,7,1693,1420,4966,0,0,0
1694,1421,8,1694,1421,4971,0,0,0
1695,1422,8,1695,1422,4974,0,0,0
1696,1423,7,1696,1423,4978,0,0,0
1697,1424,8,1697,1424,4981,0,0,0
1698,1425,8,1698,1425,4985,0,0,0
1699,1426,8,1699,1426,4990,0,0,0
1700,1426,9,1700,1426,4990,0,0,0
1701,1426,7,1701,1426,4990,0,0,0
1702,1427,8,1702,1427,4992,0,0,0
1703,1428,8,1703,1428,4996,0,0,0
1704,1429,8,1704,1429,5001,0,0,0
1705,1430,8,1705,1430,5005,0,0,0
1706,1430,7,1706,1430,5005,0,0,0
1707,1430,8,1707,1430,5005,0,0,0
1708,1430,8,1708,1430,5005,0,0,0
1709,1431,8,1709,1431,5010,0,0,0
1710,1431,8,1710,1431,5010,0,0,0
1711,1432,8,1711,1432,5012,0,0,0
1712,1433,8,1712,1433,5017,0,0,0
1713,1433,7,1713,1433,5017,0,0,0
1714,1434,8,1714,1434,5022,0,0,0
1715,1434,8,1715,1434,5022,0,0,0
1716,1435,8,1716,1435,5027,0,0,0
1717,1435,8,1717,1435,5027,0,0,0
1718,1436,7,1718,1436,5032,0,0,0
1719,1437,7,1719,1437,5034,0,0,0
1720,1438,8,1720,1438,5039,0,0,0
1721,1438,8,1721,1438,5039,0,0,0
1722,1438,8,1722,1438,5039,0,0,0
1723,1438,7,1723,1438,5039,0,0,0
1724,1439,7,1724,1439,5043,0,0,0
1725,1439,8,1725,1439,5043,0,0,0
1726,1440,8,1726,1440,5047,0,0,0
1727,1440,8,1727,1440,5047,0,0,0
1728,1440,8,1728,1440,5047,0,0,0
1729,1440,8,1729,1440,5047,0,0,0
1730,1441,8,1730,1441,5051,0,0,0
1731,1441,8,1731,1441,5051,0,0,0
1732,1441,8,1732,1441,5051,0,0,0
1733,1441,8,1733,1441,5051,0,0,0
1734,1442,8,1734,1442,5053,0,0,0
1735,1443,8,1735,1443,5056,0,0,0
1736,1445,8,1736,1445,5064,0,0,0
1737,1446,8,1737,1446,5068,0,0,0
1738,1446,8,1738,1446,5068,0,0,0
1739,1447,8,1739,1447,5073,0,0,0
1740,1448,7,1740,1448,5077,0,0,0
1741,1449,7,1741,1449,5079,0,0,0
1742,1450,8,1742,1450,5084,0,0,0
1743,1450,8,1743,1450,5084,0,0,0
1744,1451,8,1744,1451,5088,0,0,0
1745,1451,8,1745,1451,5088,0,0,0
1746,1451,8,1746,1451,5088,0,0,0
1747,1452,8,1747,1452,5093,0,0,0
1748,1453,8,1748,1453,5098,0,0,0
1749,1455,8,1749,1455,5105,0,0,0
1750,1455,8,1750,1455,5105,0,0,0
1751,1455,8,1751,1455,5105,0,0,0
1752,1456,8,1752,1456,5110,0,0,0
1753,1457,8,1753,1457,5115,0,0,0
1754,1457,8,1754,1457,5115,0,0,0
1755,1457,8,1755,1457,5115,0,0,0
1756,1457,8,1756,1457,5115,0,0,0
1757,1458,8,1757,1458,5119,0,0,0
1758,1458,8,1758,1458,5119,0,0,0
1759,1459,8,1759,1459,5124,0,0,0
1760,1460,8,1760,1460,5127,0,0,0
1761,1461,8,1761,1461,5131,0,0,0
1762,1461,8,1762,1461,5131,0,0,0
1763,1462,8,1763,1462,5135,0,0,0
1764,1464,8,1764,1464,5144,0,0,0
1765,1464,8,1765,1464,5144,0,0,0
1766,1465,8,1766,1465,5147,0,0,0
1767,1465,8,1767,1465,5147,0,0,0
1768,1466,8,1768,1466,5151,0,0,0
1769,1466,8,1769,1466,5151,0,0,0
1770,1467,8,1770,1467,5156,0,0,0
1771,1467,8,1771,1467,5156,0,0,0
1772,1467,8,1772,1467,5156,0,0,0
1773,1468,8,1773,1468,5160,0,0,0
1774,1468,8,1774,1468,5160,0,0,0
1775,1469,8,1775,1469,5163,0,0,0
1776,1469,8,1776,1469,5163,0,0,0
1777,1469,8,1777,1469,5163,0,0,0
1778,1469,9,1778,1469,5163,0,0,0
1779,1469,8,1779,1469,5163,0,0,0
1780,1469,8,1780,1469,5163,0,0,0
1781,1470,8,1781,1470,5168,0,0,0
1782,1470,8,1782,1470,5168,0,0,0
1783,1471,10,1783,1471,5172,0,0,0
1784,1472,8,1784,1472,5175,0,0,0
1785,1472,8,1785,1472,5175,0,0,0
1786,1472,8,1786,1472,5175,0,0,0
1787,1473,8,1787,1473,5178,0,0,0
1788,1474,8,1788,1474,5182,0,0,0
1789,1475,8,1789,1475,5187,0,0,0
1790,1475,9,1790,1475,5187,0,0,0
1791,1475,9,1791,1475,5187,0,0,0
1792,1476,8,1792,1476,5189,0,0,0
1793,1477,8,1793,1477,5191,0,0,0
1794,1477,9,1794,1477,5191,0,0,0
1795,1477,8,1795,1477,5191,0,0,0
1796,1478,8,1796,1478,5196,0,0,0
1797,1479,8,1797,1479,5201,0,0,0
1798,1479,9,1798,1479,5201,0,0,0
1799,1479,8,1799,1479,5201,0,0,0
1800,1480,8,1800,1480,5206,0,0,0
1801,1481,9,1801,1481,5210,0,0,0
1802,1481,8,1802,1481,5210,0,0,0
1803,1482,8,1803,1482,5215,0,0,0
1804,1482,9,1804,1482,5215,0,0,0
1805,1484,8,1805,1484,5222,0,0,0
1806,1484,9,1806,1484,5222,0,0,0
1807,1484,8,1807,1484,5222,0,0,0
1808,1485,8,1808,1485,5225,0,0,0
1809,1486,9,1809,1486,5230,0,0,0
1810,1486,8,1810,1486,5230,0,0,0
1811,1487,8,1811,1487,5235,0,0,0
1812,1488,9,1812,1488,5240,0,0,0
1813,1489,8,1813,1489,5245,0,0,0
1814,1489,9,1814,1489,5245,0,0,0
1815,1489,8,1815,1489,5245,0,0,0
1816,1489,8,1816,1489,5245,0,0,0
1817,1490,9,1817,1490,5250,0,0,0
1818,1490,8,1818,1490,5250,0,0,0
1819,1491,9,1819,1491,5253,0,0,0
1820,1491,8,1820,1491,5253,0,0,0
1821,1491,8,1821,1491,5253,0,0,0
1822,1491,9,1822,1491,5253,0,0,0
1823,1491,8,1823,1491,5253,0,0,0
1824,1491,9,1824,1491,5253,0,0,0
1825,1492,8,1825,1492,5256,0,0,0
1826,1493,9,1826,1493,5260,0,0,0
1827,1494,8,1827,1494,5263,0,0,0
1828,1494,8,1828,1494,5263,0,0,0
1829,1494,8,1829,1494,5263,0,0,0
1830,1494,8,1830,1494,5263,0,0,0
1831,1495,9,1831,1495,5265,0,0,0
1832,1496,9,1832,1496,5270,0,0,0
1833,1496,8,1833,1496,5270,0,0,0
1834,1496,8,1834,1496,5270,0,0,0
1835,1496,8,1835,1496,5270,0,0,0
1836,1496,8,1836,1496,5270,0,0,0
1837,1496,8,1837,1496,5270,0,0,0
1838,1497,8,1838,1497,5273,0,0,0
1839,1497,9,1839,1497,5273,0,0,0
1840,1497,8,1840,1497,5273,0,0,0
1841,1498,9,1841,1498,5277,0,0,0
1842,1498,8,1842,1498,5277,0,0,0
1843,1498,8,1843,1498,5277,0,0,0
1844,1498,9,1844,1498,5277,0,0,0
1845,1498,8,1845,1498,5277,0,0,0
1846,1499,9,1846,1499,5281,0,0,0
1847,1499,8,1847,1499,5281,0,0,0
1848,1499,9,1848,1499,5281,0,0,0
1849,1499,8,1849,1499,5281,0,0,0
1850,1499,9,1850,1499,5281,0,0,0
1851,1499,8,1851,1499,5281,0,0,0
1852,1500,9,1852,1500,5286,0,0,0
1853,1501,9,1853,1501,5288,0,0,0
1854,1501,8,1854,1501,5288,0,0,0
1855,1501,9,1855,1501,5288,0,0,0
1856,1501,8,1856,1501,5288,0,0,0
1857,1501,9,1857,1501,5288,0,0,0
1858,1501,8,1858,1501,5288,0,0,0
1859,1502,9,1859,1502,5292,0,0,0
1860,1503,8,1860,1503,5295,0,0,0
1861,1504,9,1861,1504,5300,0,0,0
1862,1504,10,1862,1504,5300,0,0,0
1863,1504,8,1863,1504,5300,0,0,0
1864,1505,9,1864,1505,5305,0,0,0
1865,1506,8,1865,1506,5310,0,0,0
1866,1507,9,1866,1507,5313,0,0,0
1867,1509,9,1867,1509,5321,0,0,0
1868,1510,8,1868,1510,5324,0,0,0
1869,1510,9,1869,1510,5324,0,0,0
1870,1511,9,1870,1511,5329,0,0,0
1871,1511,8,1871,1511,5329,0,0,0
1872,1511,9,1872,1511,5329,0,0,0
1873,1511,9,1873,1511,5329,0,0,0
1874,1512,8,1874,1512,5332,0,0,0
1875,1512,9,1875,1512,5332,0,0,0
1876,1512,9,1876,1512,5332,0,0,0
1877,1513,8,1877,1513,5337,0,0,0
1878,1513,9,1878,1513,5337,0,0,0
1879,1513,8,1879,1513,5337,0,0,0
1880,1514,9,1880,1514,5341,0,0,0
1881,1515,9,1881,1515,5343,0,0,0
1882,1516,8,1882,1516,5348,0,0,0
1883,1517,9,1883,1517,5352,0,0,0
1884,1517,9,1884,1517,5352,0,0,0
1885,1520,9,1885,1520,5361,0,0,0
1886,1520,9,1886,1520,5361,0,0,0
1887,1521,8,1887,1521,5364,0,0,0
1888,1522,8,1888,1522,5369,0,0,0
1889,1522,10,1889,1522,5369,0,0,0
1890,1523,8,1890,1523,5373,0,0,0
1891,1523,8,1891,1523,5373,0,0,0
1892,1524,9,1892,1524,5378,0,0,0
1893,1525,9,1893,1525,5381,0,0,0
1894,1526,9,1894,1526,5383,0,0,0
1895,1526,8,1895,1526,5383,0,0,0
1896,1527,8,1896,1527,5388,0,0,0
1897,1527,8,1897,1527,5388,0,0,0
1898,1527,9,1898,1527,5388,0,0,0
1899,1527,9,1899,1527,5388,0,0,0
1900,1527,8,1900,1527,5388,0,0,0
1901,1528,8,1901,1528,5392,0,0,0
1902,1529,9,1902,1529,5397,0,0,0
1903,1529,9,1903,1529,5397,0,0,0
1904,1529,9,1904,1529,5397,0,0,0
1905,1529,9,1905,1529,5397,0,0,0
1906,1530,9,1906,1530,5402,0,0,0
1907,1532,9,1907,1532,5408,0,0,0
1908,1532,9,1908,1532,5408,0,0,0
1909,1532,9,1909,1532,5408,0,0,0
1910,1532,9,1910,1532,5408,0,0,0
1911,1532,8,1911,1532,5408,0,0,0
1912,1532,8,1912,1532,5408,0,0,0
1913,1532,9,1913,1532,5408,0,0,0
1914,1532,9,1914,1532,5408,0,0,0
1915,1533,9,1915,1533,5412,0,0,0
1916,1534,9,1916,1534,5416,0,0,0
1917,1534,9,1917,1534,5416,0,0,0
1918,1535,9,1918,1535,5421,0,0,0
1919,1535,9,1919,1535,5421,0,0,0
1920,1535,9,1920,1535,5421,0,0,0
1921,1536,9,1921,1536,5424,0,0,0
1922,1536,9,1922,1536,5424,0,0,0
1923,1537,8,1923,1537,5428,0,0,0
1924,1537,9,1924,1537,5428,0,0,0
1925,1537,8,1925,1537,5428,0,0,0
1926,1537,9,1926,1537,5428,0,0,0
1927,1538,9,1927,1538,5429,0,0,0
1928,1539,9,1928,1539,5434,0,0,0
1929,1540,9,1929,1540,5439,0,0,0
1930,1540,9,1930,1540,5439,0,0,0
1931,1540,9,1931,1540,5439,0,0,0
1932,1540,9,1932,1540,5439,0,0,0
1933,1540,9,1933,1540,5439,0,0,0
1934,1541,9,1934,1541,5444,0,0,0
1935,1541,9,1935,1541,5444,0,0,0
1936,1543,9,1936,1543,5450,0,0,0
1937,1544,11,1937,1544,5452,0,0,0
1938,1545,8,1938,1545,5457,0,0,0
1939,1546,8,1939,1546,5460,0,0,0
1940,1546,9,1940,1546,5460,0,0,0
1941,1547,9,1941,1547,5463,0,0,0
1942,1547,9,1942,1547,5463,0,0,0
1943,1548,9,1943,1548,5467,0,0,0
1944,1548,9,1944,1548,5467,0,0,0
1945,1548,9,1945,1548,5467,0,0,0
1946,1548,9,1946,1548,5467,0,0,0
1947,1548,9,1947,1548,5467,0,0,0
1948,1549,10,1948,1549,5471,0,0,0
1949,1550,9,1949,1550,5475,0,0,0
1950,1550,9,1950,1550,5475,0,0,0
1951,1550,9,1951,1550,5475,0,0,0
1952,1551,9,1952,1551,5479,0,0,0
1953,1551,9,1953,1551,5479,0,0,0
1954,1551,9,1954,1551,5479,0,0,0
1955,1552,9,1955,1552,5484,0,0,0
1956,1553,9,1956,1553,5488,0,0,0
1957,1553,9,1957,1553,5488,0,0,0
1958,1553,9,1958,1553,5488,0,0,0
1959,1554,9,1959,1554,5491,0,0,0
1960,1555,9,1960,1555,5496,0,0,0
1961,1556,9,1961,1556,5501,0,0,0
1962,1557,9,1962,1557,5503,0,0,0
1963,1557,9,1963,1557,5503,0,0,0
1964,1557,10,1964,1557,5503,0,0,0
1965,1558,9,1965,1558,5508,0,0,0
1966,1559,9,1966,1559,5509,0,0,0
1967,1559,9,1967,1559,5509,0,0,0
1968,1559,9,1968,1559,5509,0,0,0
1969,1560,9,1969,1560,5514,0,0,0
1970,1560,10,1970,1560,5514,0,0,0
1971,1560,9,1971,1560,5514,0,0,0
1972,1560,9,1972,1560,5514,0,0,0
1973,1561,9,1973,1561,5517,0,0,0
1974,1561,9,1974,1561,5517,0,0,0
1975,1561,10,1975,1561,5517,0,0,0
1976,1561,9,1976,1561,5517,0,0,0
1977,1561,9,1977,1561,5517,0,0,0
1978,1561,9,1978,1561,5517,0,0,0
1979,1562,9,1979,1562,5522,0,0,0
1980,1563,9,1980,1563,5527,0,0,0
1981,1564,9,1981,1564,5531,0,0,0
1982,1564,9,1982,1564,5531,0,0,0
1983,1564,9,1983,1564,5531,0,0,0
1984,1564,9,1984,1564,5531,0,0,0
1985,1564,9,1985,1564,5531,0,0,0
1986,1564,9,1986,1564,5531,0,0,0
1987,1564,9,1987,1564,5531,0,0,0
1988,1564,9,1988,1564,5531,0,0,0
1989,1564,9,1989,1564,5531,0,0,0
1990,1565,9,1990,1565,5534,0,0,0
1991,1566,9,1991,1566,5539,0,0,0
1992,1567,9,1992,1567,5541,0,0,0
1993,1568,9,1993,1568,5544,0,0,0
1994,1569,10,1994,1569,5549,0,0,0
1995,1570,9,1995,1570,5553,0,0,0
1996,1571,9,1996,1571,5558,0,0,0
1997,1571,10,1997,1571,5558,0,0,0
1998,1572,9,1998,1572,5563,0,0,0
1999,1572,10,1999,1572,5563,0,0,0
2000,1573,9,2000,1573,5565,0,0,0
2001,1574,10,2001,1574,5570,0,0,0
2002,1574,9,2002,1574,5570,0,0,0
2003,1574,9,2003,1574,5570,0,0,0
2004,1575,9,2004,1575,5574,0,0,0
2005,1576,10,2005,1576,5576,0,0,0
2006,1577,8,2006,1577,5580,0,0,0
2007,1578,9,2007,1578,5582,0,0,0
2008,1579,10,2008,1579,5587,0,0,0
2009,1580,9,2009,1580,5592,0,0,0
2010,1580,10,2010,1580,5592,0,0,0
2011,1581,9,2011,1581,5597,0,0,0
2012,1581,9,2012,1581,5597,0,0,0
2013,1583,10,2013,1583,5605,0,0,0
2014,1584,9,2014,1584,5609,0,0,0
2015,1584,10,2015,1584,5609,0,0,0
2016,1585,9,2016,1585,5613,0,0,0
2017,1585,10,2017,1585,5613,0,0,0
2018,1586,9,2018,1586,5618,0,0,0
2019,1587,10,2019,1587,5622,0,0,0
2020,1588,9,2020,1588,5626,0,0,0
2021,1588,9,2021,1588,5626,0,0,0
2022,1589,9,2022,1589,5628,0,0,0
2023,1590,10,2023,1590,5631,0,0,0
2024,1591,9,2024,1591,5636,0,0,0
2025,1591,10,2025,1591,5636,0,0,0
2026,1591,10,2026,1591,5636,0,0,0
2027,1592,9,2027,1592,5641,0,0,0
2028,1593,10,2028,1593,5644,0,0,0
2029,1593,9,2029,1593,5644,0,0,0
2030,1594,10,2030,1594,5649,0,0,0
2031,1594,10,2031,1594,5649,0,0,0
2032,1595,9,2032,1595,5654,0,0,0
2033,1595,10,2033,1595,5654,0,0,0
2034,1596,9,2034,1596,5656,0,0,0
2035,1597,9,2035,1597,5661,0,0,0
2036,1598,10,2036,1598,5666,0,0,0
2037,1599,10,2037,1599,5671,0,0,0
2038,1600,10,2038,1600,5675,0,0,0
2039,1600,9,2039,1600,5675,0,0,0
2040,1601,9,2040,1601,5677,0,0,0
2041,1602,10,2041,1602,5681,0,0,0
2042,1603,10,2042,1603,5685,0,0,0
2043,1604,10,2043,1604,5688,0,0,0
2044,1605,10,2044,1605,5692,0,0,0
2045,1606,9,2045,1606,5696,0,0,0
2046,1606,10,2046,1606,5696,0,0,0
2047,1606,9,2047,1606,5696,0,0,0
2048,1607,9,2048,1607,5701,0,0,0
2049,1608,10,2049,1608,5705,0,0,0
2050,1608,9,2050,1608,5705,0,0,0
2051,1608,10,2051,1608,5705,0,0,0
2052,1608,9,2052,1608,5705,0,0,0
2053,1608,9,2053,1608,5705,0,0,0
2054,1609,10,2054,1609,5709,0,0,0
2055,1610,10,2055,1610,5712,0,0,0
2056,1610,9,2056,1610,5712,0,0,0
2057,1611,10,2057,1611,5716,0,0,0
2058,1611,9,2058,1611,5716,0,0,0
2059,1612,10,2059,1612,5720,0,0,0
2060,1613,10,2060,1613,5724,0,0,0
2061,1614,9,2061,1614,5729,0,0,0
2062,1615,10,2062,1615,5733,0,0,0
2063,1615,9,2063,1615,5733,0,0,0
2064,1616,10,2064,1616,5737,0,0,0
2065,1617,10,2065,1617,5742,0,0,0
2066,1617,9,2066,1617,5742,0,0,0
2067,1618,10,2067,1618,5746,0,0,0
2068,1619,10,2068,1619,5748,0,0,0
2069,1619,9,2069,1619,5748,0,0,0
2070,1619,10,2070,1619,5748,0,0,0
2071,1620,10,2071,1620,5753,0,0,0
2072,1620,10,2072,1620,5753,0,0,0
2073,1622,10,2073,1622,5759,0,0,0
2074,1622,9,2074,1622,5759,0,0,0
2075,1622,10,2075,1622,5759,0,0,0
2076,1623,10,2076,1623,5761,0,0,0
2077,1624,10,2077,1624,5766,0,0,0
2078,1625,9,2078,1625,5771,0,0,0
2079,1626,10,2079,1626,5776,0,0,0
2080,1626,11,2080,1626,5776,0,0,0
2081,1626,10,2081,1626,5776,0,0,0
2082,1627,10,2082,1627,5778,0,0,0
2083,1628,10,2083,1628,5783,0,0,0
2084,1629,10,2084,1629,5788,0,0,0
2085,1630,10,2085,1630,5791,0,0,0
2086,1631,10,2086,1631,5795,0,0,0
2087,1631,9,2087,1631,5795,0,0,0
2088,1632,10,2088,1632,5800,0,0,0
2089,1633,10,2089,1633,5802,0,0,0
2090,1634,10,2090,1634,5807,0,0,0
2091,1634,10,2091,1634,5807,0,0,0
2092,1634,10,2092,1634,5807,0,0,0
2093,1635,10,2093,1635,5811,0,0,0
2094,1635,9,2094,1635,5811,0,0,0
2095,1635,10,2095,1635,5811,0,0,0
2096,1636,10,2096,1636,5814,0,0,0
2097,1636,10,2097,1636,5814,0,0,0
2098,1636,10,2098,1636,5814,0,0,0
2099,1636,10,2099,1636,5814,0,0,0
2100,1636,10,2100,1636,5814,0,0,0
2101,1636,10,2101,1636,5814,0,0,0
2102,1636,9,2102,1636,5814,0,0,0
2103,1637,10,2103,1637,5817,0,0,0
2104,1638,10,2104,1638,5821,0,0,0
2105,1638,9,2105,1638,5821,0,0,0
2106,1638,9,2106,1638,5821,0,0,0
2107,1638,10,2107,1638,5821,0,0,0
2108,1639,10,2108,1639,5823,0,0,0
2109,1640,10,2109,1640,5827,0,0,0
2110,1640,10,2110,1640,5827,0,0,0
2111,1642,10,2111,1642,5834,0,0,0
2112,1642,10,2112,1642,5834,0,0,0
2113,1643,10,2113,1643,5836,0,0,0
2114,1643,10,2114,1643,5836,0,0,0
2115,1643,9,2115,1643,5836,0,0,0
2116,1644,10,2116,1644,5841,0,0,0
2117,1645,10,2117,1645,5846,0,0,0
2118,1646,10,2118,1646,5849,0,0,0
2119,1646,10,2119,1646,5849,0,0,0
2120,1646,10,2120,1646,5849,0,0,0
2121,1648,9,2121,1648,5855,0,0,0
2122,1648,10,2122,1648,5855,0,0,0
2123,1648,10,2123,1648,5855,0,0,0
2124,1649,10,2124,1649,5860,0,0,0
2125,1649,10,2125,1649,5860,0,0,0
2126,1649,10,2126,1649,5860,0,0,0
2127,1650,10,2127,1650,5862,0,0,0
2128,1650,10,2128,1650,5862,0,0,0
2129,1651,10,2129,1651,5867,0,0,0
2130,1652,10,2130,1652,5870,0,0,0
2131,1652,10,2131,1652,5870,0,0,0
2132,1653,10,2132,1653,5875,0,0,0
2133,1653,10,2133,1653,5875,0,0,0
2134,1653,10,2134,1653,5875,0,0,0
2135,1653,10,2135,1653,5875,0,0,0
2136,1654,10,2136,1654,5879,0,0,0
2137,1654,10,2137,1654,5879,0,0,0
2138,1654,9,2138,1654,5879,0,0,0
2139,1655,10,2139,1655,5884,0,0,0
2140,1655,10,2140,1655,5884,0,0,0
2141,1655,10,2141,1655,5884,0,0,0
2142,1656,10,2142,1656,5888,0,0,0
2143,1656,10,2143,1656,5888,0,0,0
2144,1657,10,2144,1657,5892,0,0,0
2145,1658,10,2145,1658,5895,0,0,0
2146,1659,10,2146,1659,5898,0,0,0
2147,1660,10,2147,1660,5903,0,0,0
2148,1660,11,2148,1660,5903,0,0,0
2149,1660,10,2149,1660,5903,0,0,0
2150,1661,10,2150,1661,5907,0,0,0
2151,1662,10,2151,1662,5911,0,0,0
2152,1662,10,2152,1662,5911,0,0,0
2153,1662,10,2153,1662,5911,0,0,0
2154,1662,10,2154,1662,5911,0,0,0
2155,1662,10,2155,1662,5911,0,0,0
2156,1662,10,2156,1662,5911,0,0,0
2157,1662,10,2157,1662,5911,0,0,0
2158,1662,10,2158,1662,5911,0,0,0
2159,1662,10,2159,1662,5911,0,0,0
2160,1662,10,2160,1662,5911,0,0,0
2161,1662,10,2161,1662,5911,0,0,0
2162,1662,10,2162,1662,5911,0,0,0
2163,1663,10,2163,1663,5915,0,0,0
2164,1665,10,2164,1665,5923,0,0,0
2165,1665,10,2165,1665,5923,0,0,0
2166,1666,11,2166,1666,5927,0,0,0
2167,1667,10,2167,1667,5932,0,0,0
2168,1667,10,2168,1667,5932,0,0,0
2169,1668,10,2169,1668,5936,0,0,0
2170,1668,11,2170,1668,5936,0,0,0
2171,1670,10,2171,1670,5943,0,0,0
2172,1670,10,2172,1670,5943,0,0,0
2173,1670,10,2173,1670,5943,0,0,0
2174,1671,10,2174,1671,5947,0,0,0
2175,1671,10,2175,1671,5947,0,0,0
2176,1672,10,2176,1672,5952,0,0,0
2177,1673,10,2177,1673,5957,0,0,0
2178,1673,10,2178,1673,5957,0,0,0
2179,1673,11,2179,1673,5957,0,0,0
2180,1674,10,2180,1674,5962,0,0,0
2181,1674,10,2181,1674,5962,0,0,0
2182,1675,10,2182,1675,5966,0,0,0
2183,1675,11,2183,1675,5966,0,0,0
2184,1676,10,2184,1676,5971,0,0,0
2185,1676,10,2185,1676,5971,0,0,0
2186,1677,11,2186,1677,5976,0,0,0
2187,1678,10,2187,1678,5981,0,0,0
2188,1679,10,2188,1679,5984,0,0,0
2189,1680,11,2189,1680,5989,0,0,0
2190,1680,10,2190,1680,5989,0,0,0
2191,1681,10,2191,1681,5994,0,0,0
2192,1681,10,2192,1681,5994,0,0,0
2193,1681,10,2193,1681,5994,0,0,0
2194,1682,10,2194,1682,5999,0,0,0
2195,1683,10,2195,1683,6003,0,0,0
2196,1683,11,2196,1683,6003,0,0,0
2197,1684,10,2197,1684,6008,0,0,0
2198,1685,10,2198,1685,6012,0,0,0
2199,1686,10,2199,1686,6016,0,0,0
2200,1687,11,2200,1687,6019,0,0,0
2201,1687,10,2201,1687,6019,0,0,0
2202,1687,11,2202,1687,6019,0,0,0
2203,1688,10,2203,1688,6021,0,0,0
2204,1689,11,2204,1689,6025,0,0,0
2205,1690,10,2205,1690,6030,0,0,0
2206,1691,11,2206,1691,6032,0,0,0
2207,1692,10,2207,1692,6035,0,0,0
2208,1692,11,2208,1692,6035,0,0,0
2209,1692,10,2209,1692,6035,0,0,0
2210,1693,11,2210,1693,6039,0,0,0
2211,1693,10,2211,1693,6039,0,0,0
2212,1693,11,2212,1693,6039,0,0,0
2213,1694,10,2213,1694,6044,0,0,0
2214,1695,12,2214,1695,6048,0,0,0
2215,1696,10,2215,1696,6050,0,0,0
2216,1696,10,2216,1696,6050,0,0,0
2217,1696,12,2217,1696,6050,0,0,0
2218,1696,9,2218,1696,6050,0,0,0
2219,1696,11,2219,1696,6050,0,0,0
2220,1696,10,2220,1696,6050,0,0,0
2221,1696,10,2221,1696,6050,0,0,0
2222,1699,11,2222,1699,6059,0,0,0
2223,1700,10,2223,1700,6063,0,0,0
2224,1701,11,2224,1701,6066,0,0,0
2225,1702,10,2225,1702,6071,0,0,0
2226,1702,11,2226,1702,6071,0,0,0
2227,1703,10,2227,1703,6074,0,0,0
2228,1704,11,2228,1704,6076,0,0,0
2229,1704,10,2229,1704,6076,0,0,0
2230,1705,11,2230,1705,6080,0,0,0
2231,1705,11,2231,1705,6080,0,0,0
2232,1705,10,2232,1705,6080,0,0,0
2233,1706,11,2233,1706,6084,0,0,0
2234,1707,10,2234,1707,6089,0,0,0
2235,1707,10,2235,1707,6089,0,0,0
2236,1708,11,2236,1708,6093,0,0,0
2237,1709,10,2237,1709,6095,0,0,0
2238,1709,11,2238,1709,6095,0,0,0
2239,1710,11,2239,1710,6096,0,0,0
2240,1711,10,2240,1711,6101,0,0,0
2241,1711,11,2241,1711,6101,0,0,0
2242,1712,10,2242,1712,6106,0,0,0
2243,1712,10,2243,1712,6106,0,0,0
2244,1712,11,2244,1712,6106,0,0,0
2245,1713,10,2245,1713,6110,0,0,0
2246,1713,11,2246,1713,6110,0,0,0
2247,1713,10,2247,1713,6110,0,0,0
2248,1714,10,2248,1714,6115,0,0,0
2249,1714,11,2249,1714,6115,0,0,0
2250,1715,11,2250,1715,6118,0,0,0
2251,1715,11,2251,1715,6118,0,0,0
2252,1715,10,2252,1715,6118,0,0,0
2253,1716,11,2253,1716,6123,0,0,0
2254,1716,10,2254,1716,6123,0,0,0
2255,1717,11,2255,1717,6128,0,0,0
2256,1717,11,2256,1717,6128,0,0,0
2257,1717,10,2257,1717,6128,0,0,0
2258,1717,11,2258,1717,6128,0,0,0
2259,1717,10,2259,1717,6128,0,0,0
2260,1717,10,2260,1717,6128,0,0,0
2261,1717,11,2261,1717,6128,0,0,0
2262,1717,10,2262,1717,6128,0,0,0
2263,1718,11,2263,1718,6130,0,0,0
2264,1719,11,2264,1719,6135,0,0,0
2265,1719,11,2265,1719,6135,0,0,0
2266,1720,10,2266,1720,6139,0,0,0
2267,1721,11,2267,1721,6141,0,0,0
2268,1722,11,2268,1722,6144,0,0,0
2269,1722,10,2269,1722,6144,0,0,0
2270,1723,10,2270,1723,6149,0,0,0
2271,1724,11,2271,1724,6153,0,0,0
2272,1724,11,2272,1724,6153,0,0,0
2273,1725,10,2273,1725,6158,0,0,0
2274,1726,10,2274,1726,6163,0,0,0
2275,1726,11,2275,1726,6163,0,0,0
2276,1726,11,2276,1726,6163,0,0,0
2277,1726,11,2277,1726,6163,0,0,0
2278,1726,13,2278,1726,6163,0,0,0
2279,1726,11,2279,1726,6163,0,0,0
2280,1726,11,2280,1726,6163,0,0,0
2281,1727,12,2281,1727,6168,0,0,0
2282,1727,11,2282,1727,6168,0,0,0
2283,1728,11,2283,1728,6171,0,0,0
2284,1728,11,2284,1728,6171,0,0,0
2285,1729,12,2285,1729,6174,0,0,0
2286,1730,11,2286,1730,6179,0,0,0
2287,1730,11,2287,1730,6179,0,0,0
2288,1730,10,2288,1730,6179,0,0,0
2289,1730,10,2289,1730,6179,0,0,0
2290,1731,11,2290,1731,6181,0,0,0
2291,1731,11,2291,1731,6181,0,0,0
2292,1732,11,2292,1732,6185,0,0,0
2293,1732,11,2293,1732,6185,0,0,0
2294,1732,11,2294,1732,6185,0,0,0
2295,1732,11,2295,1732,6185,0,0,0
2296,1732,11,2296,1732,6185,0,0,0
2297,1733,11,2297,1733,6190,0,0,0
2298,1733,11,2298,1733,6190,0,0,0
2299,1733,11,2299,1733,6190,0,0,0
2300,1734,11,2300,1734,6194,0,0,0
2301,1734,11,2301,1734,6194,0,0,0
2302,1735,11,2302,1735,6198,0,0,0
2303,1736,11,2303,1736,6200,0,0,0
2304,1737,11,2304,1737,6205,0,0,0
2305,1738,11,2305,1738,6210,0,0,0
2306,1738,11,2306,1738,6210,0,0,0
2307,1738,11,2307,1738,6210,0,0,0
2308,1739,11,2308,1739,6213,0,0,0
2309,1739,11,2309,1739,6213,0,0,0
2310,1739,12,2310,1739,6213,0,0,0
2311,1739,11,2311,1739,6213,0,0,0
2312,1739,11,2312,1739,6213,0,0,0
2313,1739,11,2313,1739,6213,0,0,0
2314,1739,10,2314,1739,6213,0,0,0
2315,1739,11,2315,1739,6213,0,0,0
2316,1739,11,2316,1739,6213,0,0,0
2317,1740,11,2317,1740,6214,0,0,0
2318,1741,12,2318,1741,6218,0,0,0
2319,1741,11,2319,1741,6218,0,0,0
2320,1741,11,2320,1741,6218,0,0,0
2321,1742,11,2321,1742,6222,0,0,0
2322,1743,11,2322,1743,6224,0,0,0
2323,1743,11,2323,1743,6224,0,0,0
2324,1743,11,2324,1743,6224,0,0,0
2325,1743,12,2325,1743,6224,0,0,0
2326,1743,11,2326,1743,6224,0,0,0
2327,1744,11,2327,1744,6227,0,0,0
2328,1745,11,2328,1745,6232,0,0,0
2329,1745,11,2329,1745,6232,0,0,0
2330,1745,11,2330,1745,6232,0,0,0
2331,1746,12,2331,1746,6236,0,0,0
2332,1747,11,2332,1747,6241,0,0,0
2333,1747,11,2333,1747,6241,0,0,0
2334,1749,11,2334,1749,6248,0,0,0
2335,1750,11,2335,1750,6252,0,0,0
2336,1750,11,2336,1750,6252,0,0,0
2337,1750,12,2337,1750,6252,0,0,0
2338,1750,11,2338,1750,6252,0,0,0
2339,1751,11,2339,1751,6257,0,0,0
2340,1751,11,2340,1751,6257,0,0,0
2341,1752,12,2341,1752,6258,0,0,0
2342,1752,11,2342,1752,6258,0,0,0
2343,1752,11,2343,1752,6258,0,0,0
2344,1752,11,2344,1752,6258,0,0,0
2345,1753,11,2345,1753,6260,0,0,0
2346,1753,11,2346,1753,6260,0,0,0
2347,1755,11,2347,1755,6267,0,0,0
2348,1755,11,2348,1755,6267,0,0,0
2349,1755,12,2349,1755,6267,0,0,0
2350,1755,11,2350,1755,6267,0,0,0
2351,1756,11,2351,1756,6271,0,0,0
2352,1756,11,2352,1756,6271,0,0,0
2353,1756,11,2353,1756,6271,0,0,0
2354,1756,12,2354,1756,6271,0,0,0
2355,1756,11,2355,1756,6271,0,0,0
2356,1757,11,2356,1757,6275,0,0,0
2357,1757,11,2357,1757,6275,0,0,0
2358,1757,11,2358,1757,6275,0,0,0
2359,1758,11,2359,1758,6279,0,0,0
2360,1758,11,2360,1758,6279,0,0,0
2361,1759,12,2361,1759,6283,0,0,0
2362,1759,11,2362,1759,6283,0,0,0
2363,1760,11,2363,1760,6288,0,0,0
2364,1760,12,2364,1760,6288,0,0,0
2365,1760,11,2365,1760,6288,0,0,0
2366,1760,11,2366,1760,6288,0,0,0
2367,1760,11,2367,1760,6288,0,0,0
2368,1760,12,2368,1760,6288,0,0,0
2369,1762,11,2369,1762,6297,0,0,0
2370,1762,11,2370,1762,6297,0,0,0
2371,1762,12,2371,1762,6297,0,0,0
2372,1762,11,2372,1762,6297,0,0,0
2373,1762,11,2373,1762,6297,0,0,0
2374,1763,11,2374,1763,6300,0,0,0
2375,1764,12,2375,1764,6302,0,0,0
2376,1765,11,2376,1765,6307,0,0,0
2377,1766,11,2377,1766,6309,0,0,0
2378,1766,11,2378,1766,6309,0,0,0
2379,1767,12,2379,1767,6314,0,0,0
2380,1768,11,2380,1768,6318,0,0,0
2381,1769,11,2381,1769,6321,0,0,0
2382,1770,11,2382,1770,6325,0,0,0
2383,1770,11,2383,1770,6325,0,0,0
2384,1770,11,2384,1770,6325,0,0,0
2385,1771,12,2385,1771,6327,0,0,0
2386,1772,11,2386,1772,6332,0,0,0
2387,1772,12,2387,1772,6332,0,0,0
2388,1773,11,2388,1773,6337,0,0,0
2389,1774,12,2389,1774,6340,0,0,0
2390,1774,11,2390,1774,6340,0,0,0
2391,1774,11,2391,1774,6340,0,0,0
2392,1775,11,2392,1775,6343,0,0,0
2393,1775,11,2393,1775,6343,0,0,0
2394,1775,12,2394,1775,6343,0,0,0
2395,1776,12,2395,1776,6348,0,0,0
2396,1777,11,2396,1777,6351,0,0,0
2397,1778,12,2397,1778,6356,0,0,0
2398,1778,11,2398,1778,6356,0,0,0
2399,1778,12,2399,1778,6356,0,0,0
2400,1779,12,2400,1779,6360,0,0,0
2401,1780,11,2401,1780,6365,0,0,0
2402,1780,13,2402,1780,6365,0,0,0
2403,1780,12,2403,1780,6365,0,0,0
2404,1781,11,2404,1781,6369,0,0,0
2405,1781,12,2405,1781,6369,0,0,0
2406,1782,11,2406,1782,6374,0,0,0
2407,1782,12,2407,1782,6374,0,0,0
2408,1782,11,2408,1782,6374,0,0,0
2409,1782,11,2409,1782,6374,0,0,0
2410,1783,12,2410,1783,6379,0,0,0
2411,1785,12,2411,1785,6386,0,0,0
2412,1785,11,2412,1785,6386,0,0,0
2413,1786,12,2413,1786,6391,0,0,0
2414,1786,11,2414,1786,6391,0,0,0
2415,1786,11,2415,1786,6391,0,0,0
2416,1787,12,2416,1787,6393,0,0,0
2417,1788,11,2417,1788,6397,0,0,0
2418,1788,12,2418,1788,6397,0,0,0
2419,1788,12,2419,1788,6397,0,0,0
2420,1789,11,2420,1789,6400,0,0,0
2421,1790,12,2421,1790,6404,0,0,0
2422,1790,12,2422,1790,6404,0,0,0
2423,1790,11,2423,1790,6404,0,0,0
2424,1790,12,2424,1790,6404,0,0,0
2425,1792,11,2425,1792,6412,0,0,0
2426,1792,11,2426,1792,6412,0,0,0
2427,1793,12,2427,1793,6415,0,0,0
2428,1794,12,2428,1794,6416,0,0,0
2429,1794,11,2429,1794,6416,0,0,0
2430,1795,12,2430,1795,6420,0,0,0
2431,1796,12,2431,1796,6425,0,0,0
2432,1797,11,2432,1797,6430,0,0,0
2433,1797,12,2433,1797,6430,0,0,0
2434,1798,11,2434,1798,6435,0,0,0
2435,1799,11,2435,1799,6440,0,0,0
2436,1799,12,2436,1799,6440,0,0,0
2437,1799,11,2437,1799,6440,0,0,0
2438,1799,12,2438,1799,6440,0,0,0
2439,1799,11,2439,1799,6440,0,0,0
2440,1799,12,2440,1799,6440,0,0,0
2441,1799,11,2441,1799,6440,0,0,0
2442,1799,11,2442,1799,6440,0,0,0
2443,1799,12,2443,1799,6440,0,0,0
2444,1799,12,2444,1799,6440,0,0,0
2445,1800,11,2445,1800,6445,0,0,0
2446,1800,12,2446,1800,6445,0,0,0
2447,1800,12,2447,1800,6445,0,0,0
2448,1800,11,2448,1800,6445,0,0,0
2449,1800,12,2449,1800,6445,0,0,0
2450,1800,12,2450,1800,6445,0,0,0
2451,1800,11,2451,1800,6445,0,0,0
2452,1800,12,2452,1800,6445,0,0,0
2453,1800,12,2453,1800,6445,0,0,0
2454,1800,11,2454,1800,6445,0,0,0
2455,1801,12,2455,1801,6450,0,0,0
2456,1801,12,2456,1801,6450,0,0,0
2457,1801,12,2457,1801,6450,0,0,0
2458,1802,11,2458,1802,6455,0,0,0
2459,1803,11,2459,1803,6458,0,0,0
2460,1804,12,2460,1804,6463,0,0,0
2461,1804,11,2461,1804,6463,0,0,0
2462,1805,13,2462,1805,6467,0,0,0
2463,1806,12,2463,1806,6472,0,0,0
2464,1806,12,2464,1806,6472,0,0,0
2465,1807,12,2465,1807,6477,0,0,0
2466,1807,12,2466,1807,6477,0,0,0
2467,1808,12,2467,1808,6482,0,0,0
2468,1808,12,2468,1808,6482,0,0,0
2469,1809,12,2469,1809,6487,0,0,0
2470,1809,12,2470,1809,6487,0,0,0
2471,1810,12,2471,1810,6491,0,0,0
2472,1810,12,2472,1810,6491,0,0,0
2473,1811,11,2473,1811,6493,0,0,0
2474,1811,12,2474,1811,6493,0,0,0
2475,1811,12,2475,1811,6493,0,0,0
2476,1811,12,2476,1811,6493,0,0,0
2477,1812,12,2477,1812,6495,0,0,0
2478,1812,12,2478,1812,6495,0,0,0
2479,1812,12,2479,1812,6495,0,0,0
2480,1812,12,2480,1812,6495,0,0,0
2481,1812,12,2481,1812,6495,0,0,0
2482,1813,12,2482,1813,6500,0,0,0
2483,1813,12,2483,1813,6500,0,0,0
2484,1814,12,2484,1814,6505,0,0,0
2485,1814,12,2485,1814,6505,0,0,0
2486,1814,12,2486,1814,6505,0,0,0
2487,1814,12,2487,1814,6505,0,0,0
2488,1815,12,2488,1815,6510,0,0,0
2489,1816,12,2489,1816,6515,0,0,0
2490,1817,12,2490,1817,6519,0,0,0
2491,1818,12,2491,1818,6524,0,0,0
2492,1818,11,2492,1818,6524,0,0,0
2493,1819,11,2493,1819,6528,0,0,0
2494,1819,12,2494,1819,6528,0,0,0
2495,1819,12,2495,1819,6528,0,0,0
2496,1820,11,2496,1820,6533,0,0,0
2497,1820,11,2497,1820,6533,0,0,0
2498,1820,12,2498,1820,6533,0,0,0
2499,1821,11,2499,1821,6538,0,0,0
2500,1821,11,2500,1821,6538,0,0,0
2501,1821,13,2501,1821,6538,0,0,0
2502,1821,12,2502,1821,6538,0,0,0
2503,1821,11,2503,1821,6538,0,0,0
2504,1821,11,2504,1821,6538,0,0,0
2505,1822,11,2505,1822,6543,0,0,0
2506,1822,12,2506,1822,6543,0,0,0
2507,1822,11,2507,1822,6543,0,0,0
2508,1822,12,2508,1822,6543,0,0,0
2509,1822,12,2509,1822,6543,0,0,0
2510,1823,12,2510,1823,6547,0,0,0
2511,1823,12,2511,1823,6547,0,0,0
2512,1823,12,2512,1823,6547,0,0,0
2513,1823,12,2513,1823,6547,0,0,0
2514,1824,12,2514,1824,6552,0,0,0
2515,1824,12,2515,1824,6552,0,0,0
2516,1824,12,2516,1824,6552,0,0,0
2517,1825,11,2517,1825,6557,0,0,0
2518,1826,11,2518,1826,6562,0,0,0
2519,1826,12,2519,1826,6562,0,0,0
2520,1829,13,2520,1829,6571,0,0,0
2521,1829,11,2521,1829,6571,0,0,0
2522,1829,12,2522,1829,6571,0,0,0
2523,1829,12,2523,1829,6571,0,0,0
2524,1829,12,2524,1829,6571,0,0,0
2525,1829,11,2525,1829,6571,0,0,0
2526,1829,12,2526,1829,6571,0,0,0
2527,1829,12,2527,1829,6571,0,0,0
2528,1830,12,2528,1830,6573,0,0,0
2529,1831,12,2529,1831,6575,0,0,0
2530,1831,12,2530,1831,6575,0,0,0
2531,1831,12,2531,1831,6575,0,0,0
2532,1831,12,2532,1831,6575,0,0,0
2533,1832,12,2533,1832,6576,0,0,0
2534,1832,12,2534,1832,6576,0,0,0
2535,1832,12,2535,1832,6576,0,0,0
2536,1833,12,2536,1833,6581,0,0,0
2537,1833,12,2537,1833,6581,0,0,0
2538,1834,12,2538,1834,6583,0,0,0
2539,1835,12,2539,1835,6587,0,0,0
2540,1835,12,2540,1835,6587,0,0,0
2541,1835,12,2541,1835,6587,0,0,0
2542,1836,11,2542,1836,6591,0,0,0
2543,1836,12,2543,1836,6591,0,0,0
2544,1837,12,2544,1837,6593,0,0,0
2545,1838,12,2545,1838,6595,0,0,0
2546,1839,12,2546,1839,6600,0,0,0
2547,1840,12,2547,1840,6604,0,0,0
2548,1840,12,2548,1840,6604,0,0,0
2549,1841,12,2549,1841,6605,0,0,0
2550,1842,12,2550,1842,6610,0,0,0
2551,1842,12,2551,1842,6610,0,0,0
2552,1843,13,2552,1843,6612,0,0,0
2553,1843,12,2553,1843,6612,0,0,0
2554,1844,12,2554,1844,6617,0,0,0
2555,1844,12,2555,1844,6617,0,0,0
2556,1844,12,2556,1844,6617,0,0,0
2557,1844,12,2557,1844,6617,0,0,0
2558,1844,12,2558,1844,6617,0,0,0
2559,1845,12,2559,1845,6620,0,0,0
2560,1846,12,2560,1846,6622,0,0,0
2561,1846,12,2561,1846,6622,0,0,0
2562,1846,12,2562,1846,6622,0,0,0
2563,1846,12,2563,1846,6622,0,0,0
2564,1846,12,2564,1846,6622,0,0,0
2565,1846,13,2565,1846,6622,0,0,0
2566,1847,12,2566,1847,6627,0,0,0
2567,1848,12,2567,1848,6632,0,0,0
2568,1849,13,2568,1849,6636,0,0,0
2569,1849,12,2569,1849,6636,0,0,0
2570,1849,12,2570,1849,6636,0,0,0
2571,1849,12,2571,1849,6636,0,0,0
2572,1849,12,2572,1849,6636,0,0,0
2573,1849,13,2573,1849,6636,0,0,0
2574,1849,12,2574,1849,6636,0,0,0
2575,1849,13,2575,1849,6636,0,0,0
2576,1849,12,2576,1849,6636,0,0,0
2577,1849,14,2577,1849,6636,0,0,0
2578,1851,12,2578,1851,6642,0,0,0
2579,1851,13,2579,1851,6642,0,0,0
2580,1852,12,2580,1852,6646,0,0,0
2581,1852,13,2581,1852,6646,0,0,0
2582,1852,11,2582,1852,6646,0,0,0
2583,1852,13,2583,1852,6646,0,0,0
2584,1852,12,2584,1852,6646,0,0,0
2585,1852,12,2585,1852,6646,0,0,0
2586,1852,12,2586,1852,6646,0,0,0
2587,1852,12,2587,1852,6646,0,0,0
2588,1852,13,2588,1852,6646,0,0,0
2589,1852,12,2589,1852,6646,0,0,0
2590,1852,13,2590,1852,6646,0,0,0
2591,1853,12,2591,1853,6651,0,0,0
2592,1853,13,2592,1853,6651,0,0,0
2593,1853,12,2593,1853,6651,0,0,0
2594,1853,13,2594,1853,6651,0,0,0
2595,1853,12,2595,1853,6651,0,0,0
2596,1854,13,2596,1854,6655,0,0,0
2597,1854,13,2597,1854,6655,0,0,0
2598,1854,12,2598,1854,6655,0,0,0
2599,1855,12,2599,1855,6659,0,0,0
2600,1856,12,2600,1856,6663,0,0,0
2601,1857,12,2601,1857,6666,0,0,0
2602,1858,12,2602,1858,6670,0,0,0
2603,1858,13,2603,1858,6670,0,0,0
2604,1858,12,2604,1858,6670,0,0,0
2605,1858,12,2605,1858,6670,0,0,0
2606,1858,12,2606,1858,6670,0,0,0
2607,1859,13,2607,1859,6675,0,0,0
2608,1859,12,2608,1859,6675,0,0,0
2609,1859,13,2609,1859,6675,0,0,0
2610,1859,12,2610,1859,6675,0,0,0
2611,1859,13,2611,1859,6675,0,0,0
2612,1859,12,2612,1859,6675,0,0,0
2613,1859,13,2613,1859,6675,0,0,0
2614,1859,12,2614,1859,6675,0,0,0
2615,1859,12,2615,1859,6675,0,0,0
2616,1860,12,2616,1860,6680,0,0,0
2617,1860,13,2617,1860,6680,0,0,0
2618,1860,12,2618,1860,6680,0,0,0
2619,1860,12,2619,1860,6680,0,0,0
2620,1861,13,2620,1861,6685,0,0,0
2621,1861,12,2621,1861,6685,0,0,0
2622,1861,13,2622,1861,6685,0,0,0
2623,1861,12,2623,1861,6685,0,0,0
2624,1861,13,2624,1861,6685,0,0,0
2625,1861,12,2625,1861,6685,0,0,0
2626,1861,13,2626,1861,6685,0,0,0
2627,1862,12,2627,1862,6690,0,0,0
2628,1862,13,2628,1862,6690,0,0,0
2629,1863,13,2629,1863,6694,0,0,0
2630,1863,12,2630,1863,6694,0,0,0
2631,1863,13,2631,1863,6694,0,0,0
2632,1864,13,2632,1864,6695,0,0,0
2633,1865,14,2633,1865,6700,0,0,0
2634,1865,13,2634,1865,6700,0,0,0
2635,1865,12,2635,1865,6700,0,0,0
2636,1865,13,2636,1865,6700,0,0,0
2637,1865,13,2637,1865,6700,0,0,0
2638,1867,13,2638,1867,6706,0,0,0
2639,1867,12,2639,1867,6706,0,0,0
2640,1867,13,2640,1867,6706,0,0,0
2641,1867,13,2641,1867,6706,0,0,0
2642,1868,13,2642,1868,6711,0,0,0
2643,1868,12,2643,1868,6711,0,0,0
2644,1868,13,2644,1868,6711,0,0,0
2645,1868,13,2645,1868,6711,0,0,0
2646,1868,13,2646,1868,6711,0,0,0
2647,1868,13,2647,1868,6711,0,0,0
2648,1868,13,2648,1868,6711,0,0,0
2649,1868,13,2649,1868,6711,0,0,0
2650,1869,13,2650,1869,6716,0,0,0
2651,1870,12,2651,1870,6720,0,0,0
2652,1870,12,2652,1870,6720,0,0,0
2653,1870,13,2653,1870,6720,0,0,0
2654,1870,13,2654,1870,6720,0,0,0
2655,1871,13,2655,1871,6724,0,0,0
2656,1872,12,2656,1872,6726,0,0,0
2657,1872,12,2657,1872,6726,0,0,0
2658,1874,13,2658,1874,6733,0,0,0
2659,1874,13,2659,1874,6733,0,0,0
2660,1874,13,2660,1874,6733,0,0,0
2661,1875,13,2661,1875,6737,0,0,0
2662,1875,12,2662,1875,6737,0,0,0
2663,1875,12,2663,1875,6737,0,0,0
2664,1876,12,2664,1876,6741,0,0,0
2665,1876,14,2665,1876,6741,0,0,0
2666,1876,13,2666,1876,6741,0,0,0
2667,1876,12,2667,1876,6741,0,0,0
2668,1877,13,2668,1877,6745,0,0,0
2669,1877,12,2669,1877,6745,0,0,0
2670,1877,12,2670,1877,6745,0,0,0
2671,1877,13,2671,1877,6745,0,0,0
2672,1877,13,2672,1877,6745,0,0,0
2673,1878,13,2673,1878,6750,0,0,0
2674,1879,12,2674,1879,6755,0,0,0
2675,1879,13,2675,1879,6755,0,0,0
2676,1880,13,2676,1880,6759,0,0,0
2677,1880,13,2677,1880,6759,0,0,0
2678,1880,13,2678,1880,6759,0,0,0
2679,1881,12,2679,1881,6761,0,0,0
2680,1881,13,2680,1881,6761,0,0,0
2681,1881,13,2681,1881,6761,0,0,0
2682,1881,13,2682,1881,6761,0,0,0
2683,1882,13,2683,1882,6762,0,0,0
2684,1882,12,2684,1882,6762,0,0,0
2685,1882,12,2685,1882,6762,0,0,0
2686,1882,12,2686,1882,6762,0,0,0
2687,1883,13,2687,1883,6766,0,0,0
2688,1883,14,2688,1883,6766,0,0,0
2689,1883,12,2689,1883,6766,0,0,0
2690,1883,12,2690,1883,6766,0,0,0
2691,1884,12,2691,1884,6769,0,0,0
2692,1884,13,2692,1884,6769,0,0,0
2693,1884,13,2693,1884,6769,0,0,0
2694,1884,13,2694,1884,6769,0,0,0
2695,1884,13,2695,1884,6769,0,0,0
2696,1884,13,2696,1884,6769,0,0,0
2697,1884,13,2697,1884,6769,0,0,0
2698,1884,13,2698,1884,6769,0,0,0
2699,1884,13,2699,1884,6769,0,0,0
2700,1885,13,2700,1885,6774,0,0,0
2701,1885,13,2701,1885,6774,0,0,0
2702,1886,13,2702,1886,6777,0,0,0
2703,1887,13,2703,1887,6780,0,0,0
2704,1887,12,2704,1887,6780,0,0,0
2705,1888,12,2705,1888,6782,0,0,0
2706,1889,13,2706,1889,6786,0,0,0
2707,1889,13,2707,1889,6786,0,0,0
2708,1889,13,2708,1889,6786,0,0,0
2709,1890,13,2709,1890,6790,0,0,0
2710,1891,14,2710,1891,6794,0,0,0
2711,1891,13,2711,1891,6794,0,0,0
2712,1891,13,2712,1891,6794,0,0,0
2713,1891,13,2713,1891,6794,0,0,0
2714,1892,13,2714,1892,6796,0,0,0
2715,1893,13,2715,1893,6801,0,0,0
2716,1894,13,2716,1894,6805,0,0,0
2717,1894,14,2717,1894,6805,0,0,0
2718,1895,13,2718,1895,6810,0,0,0
2719,1895,13,2719,1895,6810,0,0,0
2720,1895,13,2720,1895,6810,0,0,0
2721,1895,13,2721,1895,6810,0,0,0
2722,1896,13,2722,1896,6815,0,0,0
2723,1897,13,2723,1897,6817,0,0,0
2724,1898,13,2724,1898,6820,0,0,0
2725,1898,13,2725,1898,6820,0,0,0
2726,1899,14,2726,1899,6825,0,0,0
2727,1899,13,2727,1899,6825,0,0,0
2728,1899,13,2728,1899,6825,0,0,0
2729,1900,13,2729,1900,6829,0,0,0
2730,1904,14,2730,1904,6838,0,0,0
2731,1904,13,2731,1904,6838,0,0,0
2732,1904,13,2732,1904,6838,0,0,0
2733,1905,13,2733,1905,6843,0,0,0
2734,1905,14,2734,1905,6843,0,0,0
2735,1906,13,2735,1906,6845,0,0,0
2736,1906,13,2736,1906,6845,0,0,0
2737,1906,13,2737,1906,6845,0,0,0
2738,1906,13,2738,1906,6845,0,0,0
2739,1907,13,2739,1907,6848,0,0,0
2740,1907,13,2740,1907,6848,0,0,0
2741,1907,13,2741,1907,6848,0,0,0
2742,1907,15,2742,1907,6848,0,0,0
2743,1907,13,2743,1907,6848,0,0,0
2744,1907,13,2744,1907,6848,0,0,0
2745,1907,13,2745,1907,6848,0,0,0
2746,1907,13,2746,1907,6848,0,0,0
2747,1908,12,2747,1908,6853,0,0,0
2748,1908,13,2748,1908,6853,0,0,0
2749,1908,14,2749,1908,6853,0,0,0
2750,1909,13,2750,1909,6855,0,0,0
2751,1910,14,2751,1910,6858,0,0,0
2752,1910,13,2752,1910,6858,0,0,0
2753,1913,14,2753,1913,6870,0,0,0
2754,1913,13,2754,1913,6870,0,0,0
2755,1913,13,2755,1913,6870,0,0,0
2756,1913,13,2756,1913,6870,0,0,0
2757,1913,13,2757,1913,6870,0,0,0
2758,1914,13,2758,1914,6875,0,0,0
2759,1914,14,2759,1914,6875,0,0,0
2760,1914,13,2760,1914,6875,0,0,0
2761,1914,14,2761,1914,6875,0,0,0
2762,1915,13,2762,1915,6880,0,0,0
2763,1915,13,2763,1915,6880,0,0,0
2764,1917,13,2764,1917,6887,0,0,0
2765,1917,13,2765,1917,6887,0,0,0
2766,1917,14,2766,1917,6887,0,0,0
2767,1917,13,2767,1917,6887,0,0,0
2768,1917,13,2768,1917,6887,0,0,0
2769,1917,14,2769,1917,6887,0,0,0
2770,1917,13,2770,1917,6887,0,0,0
2771,1917,13,2771,1917,6887,0,0,0
2772,1917,14,2772,1917,6887,0,0,0
2773,1917,13,2773,1917,6887,0,0,0
2774,1918,13,2774,1918,6891,0,0,0
2775,1918,14,2775,1918,6891,0,0,0
2776,1918,13,2776,1918,6891,0,0,0
2777,1918,13,2777,1918,6891,0,0,0
2778,1918,14,2778,1918,6891,0,0,0
2779,1918,13,2779,1918,6891,0,0,0
2780,1918,13,2780,1918,6891,0,0,0
2781,1918,14,2781,1918,6891,0,0,0
2782,1919,14,2782,1919,6896,0,0,0
2783,1920,13,2783,1920,6900,0,0,0
2784,1920,13,2784,1920,6900,0,0,0
2785,1920,13,2785,1920,6900,0,0,0
2786,1920,14,2786,1920,6900,0,0,0
2787,1920,13,2787,1920,6900,0,0,0
2788,1921,14,2788,1921,6903,0,0,0
2789,1921,13,2789,1921,6903,0,0,0
2790,1921,14,2790,1921,6903,0,0,0
2791,1922,13,2791,1922,6907,0,0,0
2792,1922,14,2792,1922,6907,0,0,0
2793,1922,13,2793,1922,6907,0,0,0
2794,1922,14,2794,1922,6907,0,0,0
2795,1922,15,2795,1922,6907,0,0,0
2796,1923,13,2796,1923,6912,0,0,0
2797,1923,14,2797,1923,6912,0,0,0
2798,1923,14,2798,1923,6912,0,0,0
2799,1924,14,2799,1924,6917,0,0,0
2800,1924,14,2800,1924,6917,0,0,0
2801,1926,13,2801,1926,6925,0,0,0
2802,1926,14,2802,1926,6925,0,0,0
2803,1926,13,2803,1926,6925,0,0,0
2804,1926,14,2804,1926,6925,0,0,0
2805,1927,14,2805,1927,6927,0,0,0
2806,1927,13,2806,1927,6927,0,0,0
2807,1928,13,2807,1928,6928,0,0,0
2808,1930,14,2808,1930,6936,0,0,0
2809,1930,14,2809,1930,6936,0,0,0
2810,1930,14,2810,1930,6936,0,0,0
2811,1930,13,2811,1930,6936,0,0,0
2812,1932,14,2812,1932,6945,0,0,0
2813,1933,13,2813,1933,6950,0,0,0
2814,1934,13,2814,1934,6953,0,0,0
2815,1934,14,2815,1934,6953,0,0,0
2816,1934,13,2816,1934,6953,0,0,0
2817,1934,14,2817,1934,6953,0,0,0
2818,1934,13,2818,1934,6953,0,0,0
2819,1934,13,2819,1934,6953,0,0,0
2820,1934,14,2820,1934,6953,0,0,0
2821,1934,13,2821,1934,6953,0,0,0
2822,1935,13,2822,1935,6956,0,0,0
2823,1936,14,2823,1936,6958,0,0,0
2824,1936,14,2824,1936,6958,0,0,0
2825,1937,12,2825,1937,6962,0,0,0
2826,1937,14,2826,1937,6962,0,0,0
2827,1937,14,2827,1937,6962,0,0,0
2828,1937,14,2828,1937,6962,0,0,0
2829,1937,14,2829,1937,6962,0,0,0
2830,1937,13,2830,1937,6962,0,0,0
2831,1937,14,2831,1937,6962,0,0,0
2832,1937,14,2832,1937,6962,0,0,0
2833,1938,14,2833,1938,6967,0,0,0
2834,1939,13,2834,1939,6970,0,0,0
2835,1939,13,2835,1939,6970,0,0,0
2836,1939,14,2836,1939,6970,0,0,0
2837,1940,14,2837,1940,6974,0,0,0
2838,1941,14,2838,1941,6978,0,0,0
2839,1941,14,2839,1941,6978,0,0,0
2840,1941,14,2840,1941,6978,0,0,0
2841,1941,13,2841,1941,6978,0,0,0
2842,1941,14,2842,1941,6978,0,0,0
2843,1941,14,2843,1941,6978,0,0,0
2844,1941,14,2844,1941,6978,0,0,0
2845,1941,14,2845,1941,6978,0,0,0
2846,1942,15,2846,1942,6983,0,0,0
2847,1942,13,2847,1942,6983,0,0,0
2848,1942,13,2848,1942,6983,0,0,0
2849,1943,13,2849,1943,6988,0,0,0
2850,1943,14,2850,1943,6988,0,0,0
2851,1944,14,2851,1944,6990,0,0,0
2852,1944,14,2852,1944,6990,0,0,0
2853,1945,14,2853,1945,6994,0,0,0
2854,1945,14,2854,1945,6994,0,0,0
2855,1945,14,2855,1945,6994,0,0,0
2856,1945,14,2856,1945,6994,0,0,0
2857,1946,14,2857,1946,6996,0,0,0
2858,1947,14,2858,1947,7001,0,0,0
2859,1947,13,2859,1947,7001,0,0,0
2860,1947,13,2860,1947,7001,0,0,0
2861,1947,14,2861,1947,7001,0,0,0
2862,1947,14,2862,1947,7001,0,0,0
2863,1947,14,2863,1947,7001,0,0,0
2864,1947,14,2864,1947,7001,0,0,0
2865,1947,13,2865,1947,7001,0,0,0
2866,1948,13,2866,1948,7003,0,0,0
2867,1948,13,2867,1948,7003,0,0,0
2868,1949,13,2868,1949,7008,0,0,0
2869,1949,14,2869,1949,7008,0,0,0
2870,1949,13,2870,1949,7008,0,0,0
2871,1949,13,2871,1949,7008,0,0,0
2872,1950,14,2872,1950,7013,0,0,0
2873,1950,14,2873,1950,7013,0,0,0
2874,1950,14,2874,1950,7013,0,0,0
2875,1950,14,2875,1950,7013,0,0,0
2876,1950,14,2876,1950,7013,0,0,0
2877,1950,14,2877,1950,7013,0,0,0
2878,1950,14,2878,1950,7013,0,0,0
2879,1951,14,2879,1951,7018,0,0,0
2880,1951,14,2880,1951,7018,0,0,0
2881,1951,14,2881,1951,7018,0,0,0
2882,1951,14,2882,1951,7018,0,0,0
2883,1951,13,2883,1951,7018,0,0,0
2884,1951,14,2884,1951,7018,0,0,0
2885,1951,15,2885,1951,7018,0,0,0
2886,1951,15,2886,1951,7018,0,0,0
2887,1951,14,2887,1951,7018,0,0,0
2888,1952,15,2888,1952,7022,0,0,0
2889,1952,14,2889,1952,7022,0,0,0
2890,1952,15,2890,1952,7022,0,0,0
2891,1952,14,2891,1952,7022,0,0,0
2892,1952,14,2892,1952,7022,0,0,0
2893,1952,14,2893,1952,7022,0,0,0
2894,1952,15,2894,1952,7022,0,0,0
2895,1952,15,2895,1952,7022,0,0,0
2896,1952,14,2896,1952,7022,0,0,0
2897,1953,14,2897,1953,7026,0,0,0
2898,1953,14,2898,1953,7026,0,0,0
2899,1953,14,2899,1953,7026,0,0,0
2900,1953,14,2900,1953,7026,0,0,0
2901,1953,14,2901,1953,7026,0,0,0
2902,1953,15,2902,1953,7026,0,0,0
2903,1954,14,2903,1954,7031,0,0,0
2904,1955,14,2904,1955,7036,0,0,0
2905,1957,14,2905,1957,7043,0,0,0
2906,1959,15,2906,1959,7049,0,0,0
2907,1959,14,2907,1959,7049,0,0,0
2908,1960,15,2908,1960,7054,0,0,0
2909,1960,14,2909,1960,7054,0,0,0
2910,1960,15,2910,1960,7054,0,0,0
2911,1961,15,2911,1961,7056,0,0,0
2912,1961,15,2912,1961,7056,0,0,0
2913,1961,14,2913,1961,7056,0,0,0
2914,1961,15,2914,1961,7056,0,0,0
2915,1961,15,2915,1961,7056,0,0,0
2916,1961,15,2916,1961,7056,0,0,0
2917,1962,14,2917,1962,7061,0,0,0
2918,1962,15,2918,1962,7061,0,0,0
2919,1963,15,2919,1963,7064,0,0,0
2920,1964,14,2920,1964,7068,0,0,0
2921,1964,15,2921,1964,7068,0,0,0
2922,1964,14,2922,1964,7068,0,0,0
2923,1964,15,2923,1964,7068,0,0,0
2924,1964,14,2924,1964,7068,0,0,0
2925,1964,14,2925,1964,7068,0,0,0
2926,1964,14,2926,1964,7068,0,0,0
2927,1964,15,2927,1964,7068,0,0,0
2928,1964,15,2928,1964,7068,0,0,0
2929,1965,15,2929,1965,7072,0,0,0
2930,1965,15,2930,1965,7072,0,0,0
2931,1965,14,2931,1965,7072,0,0,0
2932,1966,15,2932,1966,7077,0,0,0
2933,1967,14,2933,1967,7082,0,0,0
2934,1967,14,2934,1967,7082,0,0,0
2935,1967,15,2935,1967,7082,0,0,0
2936,1967,14,2936,1967,7082,0,0,0
2937,1967,16,2937,1967,7082,0,0,0
2938,1967,14,2938,1967,7082,0,0,0
2939,1968,14,2939,1968,7087,0,0,0
2940,1968,14,2940,1968,7087,0,0,0
2941,1968,15,2941,1968,7087,0,0,0
2942,1969,14,2942,1969,7090,0,0,0
2943,1969,15,2943,1969,7090,0,0,0
2944,1970,15,2944,1970,7093,0,0,0
2945,1970,15,2945,1970,7093,0,0,0
2946,1970,16,2946,1970,7093,0,0,0
2947,1971,14,2947,1971,7098,0,0,0
2948,1972,14,2948,1972,7101,0,0,0
2949,1972,15,2949,1972,7101,0,0,0
2950,1972,14,2950,1972,7101,0,0,0
2951,1973,14,2951,1973,7104,0,0,0
2952,1973,15,2952,1973,7104,0,0,0
2953,1973,14,2953,1973,7104,0,0,0
2954,1973,14,2954,1973,7104,0,0,0
2955,1973,15,2955,1973,7104,0,0,0
2956,1974,15,2956,1974,7108,0,0,0
2957,1974,14,2957,1974,7108,0,0,0
2958,1974,15,2958,1974,7108,0,0,0
2959,1974,15,2959,1974,7108,0,0,0
2960,1974,14,2960,1974,7108,0,0,0
2961,1975,15,2961,1975,7109,0,0,0
2962,1975,15,2962,1975,7109,0,0,0
2963,1975,15,2963,1975,7109,0,0,0
2964,1975,15,2964,1975,7109,0,0,0
2965,1976,15,2965,1976,7114,0,0,0
2966,1976,15,2966,1976,7114,0,0,0
2967,1976,15,2967,1976,7114,0,0,0
2968,1976,15,2968,1976,7114,0,0,0
2969,1976,14,2969,1976,7114,0,0,0
2970,1976,14,2970,1976,7114,0,0,0
2971,1976,16,2971,1976,7114,0,0,0
2972,1977,15,2972,1977,7119,0,0,0
2973,1978,15,2973,1978,7124,0,0,0
2974,1978,15,2974,1978,7124,0,0,0
2975,1978,15,2975,1978,7124,0,0,0
2976,1978,15,2976,1978,7124,0,0,0
2977,1978,15,2977,1978,7124,0,0,0
2978,1979,15,2978,1979,7128,0,0,0
2979,1979,15,2979,1979,7128,0,0,0
2980,1980,15,2980,1980,7133,0,0,0
2981,1980,15,2981,1980,7133,0,0,0
2982,1980,15,2982,1980,7133,0,0,0
2983,1981,15,2983,1981,7138,0,0,0
2984,1981,15,2984,1981,7138,0,0,0
2985,1982,15,2985,1982,7143,0,0,0
2986,1982,14,2986,1982,7143,0,0,0
2987,1982,15,2987,1982,7143,0,0,0
2988,1983,15,2988,1983,7147,0,0,0
2989,1983,15,2989,1983,7147,0,0,0
2990,1983,15,2990,1983,7147,0,0,0
2991,1984,15,2991,1984,7149,0,0,0
2992,1985,15,2992,1985,7154,0,0,0
2993,1985,15,2993,1985,7154,0,0,0
2994,1985,15,2994,1985,7154,0,0,0
2995,1985,17,2995,1985,7154,0,0,0
2996,1985,15,2996,1985,7154,0,0,0
2997,1985,14,2997,1985,7154,0,0,0
2998,1985,14,2998,1985,7154,0,0,0
2999,1986,14,2999,1986,7157,0,0,0
3000,1986,15,3000,1986,7157,0,0,0
